﻿5/25/2017 5:28 PM: 'pagemb.aspx','pagesubmb.aspx','contactusmb.aspx','gallerymb.aspx','loginmb.aspx','bookingmb.aspx','historymb.aspx','memberprofilemb.aspx'::
5/25/2017 5:28 PM: 'pagemb.aspx','pagesubmb.aspx','contactusmb.aspx','gallerymb.aspx','loginmb.aspx','bookingmb.aspx','historymb.aspx','memberprofilemb.aspx'::
5/25/2017 5:29 PM: ERROR [42S02] [MySQL][ODBC 5.1 Driver][mysqld-5.6.26-log]Table 'acondstg.tb_admin' doesn't exist
5/25/2017 5:29 PM: ERROR [42S02] [MySQL][ODBC 5.1 Driver][mysqld-5.6.26-log]Table 'acondstg.tb_admin' doesn't exist
5/25/2017 5:37 PM: 'pagemb.aspx','pagesubmb.aspx','contactusmb.aspx','gallerymb.aspx','loginmb.aspx','bookingmb.aspx','historymb.aspx','memberprofilemb.aspx'::
5/25/2017 5:37 PM: 'pagemb.aspx','pagesubmb.aspx','contactusmb.aspx','gallerymb.aspx','loginmb.aspx','bookingmb.aspx','historymb.aspx','memberprofilemb.aspx'::
5/25/2017 5:37 PM: 'pagemb.aspx','pagesubmb.aspx','contactusmb.aspx','gallerymb.aspx','loginmb.aspx','bookingmb.aspx','historymb.aspx','memberprofilemb.aspx'::
5/26/2017 10:58 AM: 'pagemb.aspx','pagesubmb.aspx','contactusmb.aspx','gallerymb.aspx','loginmb.aspx','bookingmb.aspx','historymb.aspx','memberprofilemb.aspx'::
5/26/2017 10:58 AM: 'pagemb.aspx','pagesubmb.aspx','contactusmb.aspx','gallerymb.aspx','loginmb.aspx','bookingmb.aspx','historymb.aspx','memberprofilemb.aspx'::
5/26/2017 11:18 AM: 'pagemb.aspx','pagesubmb.aspx','contactusmb.aspx','gallerymb.aspx','loginmb.aspx','bookingmb.aspx','historymb.aspx','memberprofilemb.aspx'::
5/26/2017 11:20 AM: 'pagemb.aspx','pagesubmb.aspx','contactusmb.aspx','gallerymb.aspx','loginmb.aspx','bookingmb.aspx','historymb.aspx','memberprofilemb.aspx'::
5/26/2017 11:20 AM: 'pagemb.aspx','pagesubmb.aspx','contactusmb.aspx','gallerymb.aspx','loginmb.aspx','bookingmb.aspx','historymb.aspx','memberprofilemb.aspx'::
5/26/2017 11:20 AM: 'pagemb.aspx','pagesubmb.aspx','contactusmb.aspx','gallerymb.aspx','loginmb.aspx','bookingmb.aspx','historymb.aspx','memberprofilemb.aspx'::
5/26/2017 11:20 AM: 'pagemb.aspx','pagesubmb.aspx','contactusmb.aspx','gallerymb.aspx','loginmb.aspx','bookingmb.aspx','historymb.aspx','memberprofilemb.aspx'::
5/26/2017 11:20 AM: 'pagemb.aspx','pagesubmb.aspx','contactusmb.aspx','gallerymb.aspx','loginmb.aspx','bookingmb.aspx','historymb.aspx','memberprofilemb.aspx'::
5/26/2017 11:20 AM: 'pagemb.aspx','pagesubmb.aspx','contactusmb.aspx','gallerymb.aspx','loginmb.aspx','bookingmb.aspx','historymb.aspx','memberprofilemb.aspx'::
5/26/2017 11:27 AM: 'pagemb.aspx','pagesubmb.aspx','contactusmb.aspx','gallerymb.aspx','loginmb.aspx','bookingmb.aspx','historymb.aspx','memberprofilemb.aspx'::
5/26/2017 11:27 AM: 'pagemb.aspx','pagesubmb.aspx','contactusmb.aspx','gallerymb.aspx','loginmb.aspx','bookingmb.aspx','historymb.aspx','memberprofilemb.aspx'::
5/26/2017 3:40 PM: 'pagemb.aspx','pagesubmb.aspx','contactusmb.aspx','gallerymb.aspx','loginmb.aspx','bookingmb.aspx','historymb.aspx','memberprofilemb.aspx'::
5/26/2017 3:52 PM: 'pagemb.aspx','pagesubmb.aspx','contactusmb.aspx','gallerymb.aspx','loginmb.aspx','bookingmb.aspx','historymb.aspx','memberprofilemb.aspx'::
5/26/2017 3:53 PM: 'pagemb.aspx','pagesubmb.aspx','contactusmb.aspx','gallerymb.aspx','loginmb.aspx','bookingmb.aspx','historymb.aspx','memberprofilemb.aspx'::
5/26/2017 3:53 PM: 'pagemb.aspx','pagesubmb.aspx','contactusmb.aspx','gallerymb.aspx','loginmb.aspx','bookingmb.aspx','historymb.aspx','memberprofilemb.aspx'::
5/26/2017 3:53 PM: 'pagemb.aspx','pagesubmb.aspx','contactusmb.aspx','gallerymb.aspx','loginmb.aspx','bookingmb.aspx','historymb.aspx','memberprofilemb.aspx'::
5/26/2017 3:53 PM: 'pagemb.aspx','pagesubmb.aspx','contactusmb.aspx','gallerymb.aspx','loginmb.aspx','bookingmb.aspx','historymb.aspx','memberprofilemb.aspx'::
5/26/2017 3:54 PM: 'pagemb.aspx','pagesubmb.aspx','contactusmb.aspx','gallerymb.aspx','loginmb.aspx','bookingmb.aspx','historymb.aspx','memberprofilemb.aspx'::
5/26/2017 3:54 PM: 'pagemb.aspx','pagesubmb.aspx','contactusmb.aspx','gallerymb.aspx','loginmb.aspx','bookingmb.aspx','historymb.aspx','memberprofilemb.aspx'::
5/26/2017 4:56 PM: 'pagemb.aspx','pagesubmb.aspx','contactusmb.aspx','gallerymb.aspx','loginmb.aspx','bookingmb.aspx','historymb.aspx','memberprofilemb.aspx'::
5/26/2017 4:56 PM: 'pagemb.aspx','pagesubmb.aspx','contactusmb.aspx','gallerymb.aspx','loginmb.aspx','bookingmb.aspx','historymb.aspx','memberprofilemb.aspx'::
5/26/2017 4:56 PM: 'pagemb.aspx','pagesubmb.aspx','contactusmb.aspx','gallerymb.aspx','loginmb.aspx','bookingmb.aspx','historymb.aspx','memberprofilemb.aspx'::
5/26/2017 4:58 PM: 'pagemb.aspx','pagesubmb.aspx','contactusmb.aspx','gallerymb.aspx','loginmb.aspx','bookingmb.aspx','historymb.aspx','memberprofilemb.aspx'::
5/26/2017 4:58 PM: 'pagemb.aspx','pagesubmb.aspx','contactusmb.aspx','gallerymb.aspx','loginmb.aspx','bookingmb.aspx','historymb.aspx','memberprofilemb.aspx'::
5/26/2017 4:58 PM: 'pagemb.aspx','pagesubmb.aspx','contactusmb.aspx','gallerymb.aspx','loginmb.aspx','bookingmb.aspx','historymb.aspx','memberprofilemb.aspx'::
5/26/2017 4:59 PM: 'pagemb.aspx','pagesubmb.aspx','contactusmb.aspx','gallerymb.aspx','loginmb.aspx','bookingmb.aspx','historymb.aspx','memberprofilemb.aspx'::
5/26/2017 5:27 PM: 'pagemb.aspx','pagesubmb.aspx','contactusmb.aspx','gallerymb.aspx','loginmb.aspx','bookingmb.aspx','historymb.aspx','memberprofilemb.aspx'::
5/26/2017 5:27 PM: 'pagemb.aspx','pagesubmb.aspx','contactusmb.aspx','gallerymb.aspx','loginmb.aspx','bookingmb.aspx','historymb.aspx','memberprofilemb.aspx'::
5/26/2017 5:28 PM: 'pagemb.aspx','pagesubmb.aspx','contactusmb.aspx','gallerymb.aspx','loginmb.aspx','bookingmb.aspx','historymb.aspx','memberprofilemb.aspx'::
5/26/2017 5:30 PM: 'pagemb.aspx','pagesubmb.aspx','contactusmb.aspx','gallerymb.aspx','loginmb.aspx','bookingmb.aspx','historymb.aspx','memberprofilemb.aspx'::
5/26/2017 5:30 PM: 'pagemb.aspx','pagesubmb.aspx','contactusmb.aspx','gallerymb.aspx','loginmb.aspx','bookingmb.aspx','historymb.aspx','memberprofilemb.aspx'::
5/26/2017 5:31 PM: 'pagemb.aspx','pagesubmb.aspx','contactusmb.aspx','gallerymb.aspx','loginmb.aspx','bookingmb.aspx','historymb.aspx','memberprofilemb.aspx'::
7/20/2017 6:36 PM: 'pagemb.aspx','pagesubmb.aspx','contactusmb.aspx','gallerymb.aspx','loginmb.aspx','bookingmb.aspx','historymb.aspx','memberprofilemb.aspx'::
7/20/2017 6:37 PM: 'pagemb.aspx','pagesubmb.aspx','contactusmb.aspx','gallerymb.aspx','loginmb.aspx','bookingmb.aspx','historymb.aspx','memberprofilemb.aspx'::
7/20/2017 6:45 PM: 'pagemb.aspx','pagesubmb.aspx','contactusmb.aspx','gallerymb.aspx','loginmb.aspx','bookingmb.aspx','historymb.aspx','memberprofilemb.aspx'::
7/20/2017 6:47 PM: 'pagemb.aspx','pagesubmb.aspx','contactusmb.aspx','gallerymb.aspx','loginmb.aspx','bookingmb.aspx','historymb.aspx','memberprofilemb.aspx'::
7/20/2017 6:47 PM: 'pagemb.aspx','pagesubmb.aspx','contactusmb.aspx','gallerymb.aspx','loginmb.aspx','bookingmb.aspx','historymb.aspx','memberprofilemb.aspx'::
7/20/2017 6:47 PM: 'pagemb.aspx','pagesubmb.aspx','contactusmb.aspx','gallerymb.aspx','loginmb.aspx','bookingmb.aspx','historymb.aspx','memberprofilemb.aspx'::
20/07/2017 18:47: 'pagemb.aspx','pagesubmb.aspx','contactusmb.aspx','gallerymb.aspx','loginmb.aspx','bookingmb.aspx','historymb.aspx','memberprofilemb.aspx'::
20/07/2017 18:47: 'pagemb.aspx','pagesubmb.aspx','contactusmb.aspx','gallerymb.aspx','loginmb.aspx','bookingmb.aspx','historymb.aspx','memberprofilemb.aspx'::
7/20/2017 6:47 PM: 'pagemb.aspx','pagesubmb.aspx','contactusmb.aspx','gallerymb.aspx','loginmb.aspx','bookingmb.aspx','historymb.aspx','memberprofilemb.aspx'::
20/07/2017 18:48: 'pagemb.aspx','pagesubmb.aspx','contactusmb.aspx','gallerymb.aspx','loginmb.aspx','bookingmb.aspx','historymb.aspx','memberprofilemb.aspx'::
7/20/2017 6:48 PM: 'pagemb.aspx','pagesubmb.aspx','contactusmb.aspx','gallerymb.aspx','loginmb.aspx','bookingmb.aspx','historymb.aspx','memberprofilemb.aspx'::
7/20/2017 6:50 PM: 'pagemb.aspx','pagesubmb.aspx','contactusmb.aspx','gallerymb.aspx','loginmb.aspx','bookingmb.aspx','historymb.aspx','memberprofilemb.aspx'::
7/20/2017 6:51 PM: 'pagemb.aspx','pagesubmb.aspx','contactusmb.aspx','gallerymb.aspx','loginmb.aspx','bookingmb.aspx','historymb.aspx','memberprofilemb.aspx'::
7/20/2017 6:51 PM: 'pagemb.aspx','pagesubmb.aspx','contactusmb.aspx','gallerymb.aspx','loginmb.aspx','bookingmb.aspx','historymb.aspx','memberprofilemb.aspx'::
7/20/2017 6:51 PM: 'pagemb.aspx','pagesubmb.aspx','contactusmb.aspx','gallerymb.aspx','loginmb.aspx','bookingmb.aspx','historymb.aspx','memberprofilemb.aspx'::
7/20/2017 6:51 PM: 'pagemb.aspx','pagesubmb.aspx','contactusmb.aspx','gallerymb.aspx','loginmb.aspx','bookingmb.aspx','historymb.aspx','memberprofilemb.aspx'::
7/20/2017 6:52 PM: 'pagemb.aspx','pagesubmb.aspx','contactusmb.aspx','gallerymb.aspx','loginmb.aspx','bookingmb.aspx','historymb.aspx','memberprofilemb.aspx'::
7/20/2017 6:52 PM: 'pagemb.aspx','pagesubmb.aspx','contactusmb.aspx','gallerymb.aspx','loginmb.aspx','bookingmb.aspx','historymb.aspx','memberprofilemb.aspx'::
7/20/2017 6:52 PM: 'pagemb.aspx','pagesubmb.aspx','contactusmb.aspx','gallerymb.aspx','loginmb.aspx','bookingmb.aspx','historymb.aspx','memberprofilemb.aspx'::
7/20/2017 6:52 PM: 'pagemb.aspx','pagesubmb.aspx','contactusmb.aspx','gallerymb.aspx','loginmb.aspx','bookingmb.aspx','historymb.aspx','memberprofilemb.aspx'::
7/20/2017 6:52 PM: 'pagemb.aspx','pagesubmb.aspx','contactusmb.aspx','gallerymb.aspx','loginmb.aspx','bookingmb.aspx','historymb.aspx','memberprofilemb.aspx'::
7/20/2017 6:52 PM: 'pagemb.aspx','pagesubmb.aspx','contactusmb.aspx','gallerymb.aspx','loginmb.aspx','bookingmb.aspx','historymb.aspx','memberprofilemb.aspx'::
7/20/2017 6:53 PM: 'pagemb.aspx','pagesubmb.aspx','contactusmb.aspx','gallerymb.aspx','loginmb.aspx','bookingmb.aspx','historymb.aspx','memberprofilemb.aspx'::
7/20/2017 6:53 PM: 'pagemb.aspx','pagesubmb.aspx','contactusmb.aspx','gallerymb.aspx','loginmb.aspx','bookingmb.aspx','historymb.aspx','memberprofilemb.aspx'::
7/20/2017 6:53 PM: 'pagemb.aspx','pagesubmb.aspx','contactusmb.aspx','gallerymb.aspx','loginmb.aspx','bookingmb.aspx','historymb.aspx','memberprofilemb.aspx'::
7/20/2017 6:53 PM: 'pagemb.aspx','pagesubmb.aspx','contactusmb.aspx','gallerymb.aspx','loginmb.aspx','bookingmb.aspx','historymb.aspx','memberprofilemb.aspx'::
7/20/2017 6:54 PM: 'pagemb.aspx','pagesubmb.aspx','contactusmb.aspx','gallerymb.aspx','loginmb.aspx','bookingmb.aspx','historymb.aspx','memberprofilemb.aspx'::
7/22/2017 1:33 PM: 'pagemb.aspx','pagesubmb.aspx','contactusmb.aspx','gallerymb.aspx','loginmb.aspx','bookingmb.aspx','historymb.aspx','memberprofilemb.aspx'::
7/22/2017 1:34 PM: 'pagemb.aspx','pagesubmb.aspx','contactusmb.aspx','gallerymb.aspx','loginmb.aspx','bookingmb.aspx','historymb.aspx','memberprofilemb.aspx'::
22/07/2017 13:34: 'pagemb.aspx','pagesubmb.aspx','contactusmb.aspx','gallerymb.aspx','loginmb.aspx','bookingmb.aspx','historymb.aspx','memberprofilemb.aspx'::
22/07/2017 13:34: 'pagemb.aspx','pagesubmb.aspx','contactusmb.aspx','gallerymb.aspx','loginmb.aspx','bookingmb.aspx','historymb.aspx','memberprofilemb.aspx'::
7/22/2017 1:35 PM: 'pagemb.aspx','pagesubmb.aspx','contactusmb.aspx','gallerymb.aspx','loginmb.aspx','bookingmb.aspx','historymb.aspx','memberprofilemb.aspx'::
22/07/2017 13:35: 'pagemb.aspx','pagesubmb.aspx','contactusmb.aspx','gallerymb.aspx','loginmb.aspx','bookingmb.aspx','historymb.aspx','memberprofilemb.aspx'::
7/22/2017 1:35 PM: 'pagemb.aspx','pagesubmb.aspx','contactusmb.aspx','gallerymb.aspx','loginmb.aspx','bookingmb.aspx','historymb.aspx','memberprofilemb.aspx'::
7/22/2017 1:35 PM: 'pagemb.aspx','pagesubmb.aspx','contactusmb.aspx','gallerymb.aspx','loginmb.aspx','bookingmb.aspx','historymb.aspx','memberprofilemb.aspx'::
7/22/2017 1:36 PM: 'pagemb.aspx','pagesubmb.aspx','contactusmb.aspx','gallerymb.aspx','loginmb.aspx','bookingmb.aspx','historymb.aspx','memberprofilemb.aspx'::
7/22/2017 1:36 PM: 'pagemb.aspx','pagesubmb.aspx','contactusmb.aspx','gallerymb.aspx','loginmb.aspx','bookingmb.aspx','historymb.aspx','memberprofilemb.aspx'::
7/22/2017 1:36 PM: 'pagemb.aspx','pagesubmb.aspx','contactusmb.aspx','gallerymb.aspx','loginmb.aspx','bookingmb.aspx','historymb.aspx','memberprofilemb.aspx'::
7/22/2017 1:37 PM: 'pagemb.aspx','pagesubmb.aspx','contactusmb.aspx','gallerymb.aspx','loginmb.aspx','bookingmb.aspx','historymb.aspx','memberprofilemb.aspx'::
7/22/2017 1:48 PM: 'pagemb.aspx','pagesubmb.aspx','contactusmb.aspx','gallerymb.aspx','loginmb.aspx','bookingmb.aspx','historymb.aspx','memberprofilemb.aspx'::
7/22/2017 1:49 PM: 'pagemb.aspx','pagesubmb.aspx','contactusmb.aspx','gallerymb.aspx','loginmb.aspx','bookingmb.aspx','historymb.aspx','memberprofilemb.aspx'::
7/22/2017 1:49 PM: 'pagemb.aspx','pagesubmb.aspx','contactusmb.aspx','gallerymb.aspx','loginmb.aspx','bookingmb.aspx','historymb.aspx','memberprofilemb.aspx'::
7/22/2017 1:49 PM: 'pagemb.aspx','pagesubmb.aspx','contactusmb.aspx','gallerymb.aspx','loginmb.aspx','bookingmb.aspx','historymb.aspx','memberprofilemb.aspx'::
7/22/2017 1:49 PM: 'pagemb.aspx','pagesubmb.aspx','contactusmb.aspx','gallerymb.aspx','loginmb.aspx','bookingmb.aspx','historymb.aspx','memberprofilemb.aspx'::
22/07/2017 13:49: 'pagemb.aspx','pagesubmb.aspx','contactusmb.aspx','gallerymb.aspx','loginmb.aspx','bookingmb.aspx','historymb.aspx','memberprofilemb.aspx'::
7/22/2017 1:50 PM: 'pagemb.aspx','pagesubmb.aspx','contactusmb.aspx','gallerymb.aspx','loginmb.aspx','bookingmb.aspx','historymb.aspx','memberprofilemb.aspx'::
7/22/2017 1:50 PM: 'pagemb.aspx','pagesubmb.aspx','contactusmb.aspx','gallerymb.aspx','loginmb.aspx','bookingmb.aspx','historymb.aspx','memberprofilemb.aspx'::
7/22/2017 1:50 PM: 'pagemb.aspx','pagesubmb.aspx','contactusmb.aspx','gallerymb.aspx','loginmb.aspx','bookingmb.aspx','historymb.aspx','memberprofilemb.aspx'::
7/22/2017 1:50 PM: 'pagemb.aspx','pagesubmb.aspx','contactusmb.aspx','gallerymb.aspx','loginmb.aspx','bookingmb.aspx','historymb.aspx','memberprofilemb.aspx'::
7/22/2017 1:50 PM: 'pagemb.aspx','pagesubmb.aspx','contactusmb.aspx','gallerymb.aspx','loginmb.aspx','bookingmb.aspx','historymb.aspx','memberprofilemb.aspx'::
7/22/2017 1:50 PM: 'pagemb.aspx','pagesubmb.aspx','contactusmb.aspx','gallerymb.aspx','loginmb.aspx','bookingmb.aspx','historymb.aspx','memberprofilemb.aspx'::
7/22/2017 1:51 PM: 'pagemb.aspx','pagesubmb.aspx','contactusmb.aspx','gallerymb.aspx','loginmb.aspx','bookingmb.aspx','historymb.aspx','memberprofilemb.aspx'::
7/22/2017 1:51 PM: 'pagemb.aspx','pagesubmb.aspx','contactusmb.aspx','gallerymb.aspx','loginmb.aspx','bookingmb.aspx','historymb.aspx','memberprofilemb.aspx'::
7/22/2017 1:51 PM: 'pagemb.aspx','pagesubmb.aspx','contactusmb.aspx','gallerymb.aspx','loginmb.aspx','bookingmb.aspx','historymb.aspx','memberprofilemb.aspx'::
7/22/2017 1:51 PM: 'pagemb.aspx','pagesubmb.aspx','contactusmb.aspx','gallerymb.aspx','loginmb.aspx','bookingmb.aspx','historymb.aspx','memberprofilemb.aspx'::
7/22/2017 4:27 PM: 'pagemb.aspx','pagesubmb.aspx','contactusmb.aspx','gallerymb.aspx','loginmb.aspx','bookingmb.aspx','historymb.aspx','memberprofilemb.aspx'::
7/22/2017 4:28 PM: 'pagemb.aspx','pagesubmb.aspx','contactusmb.aspx','gallerymb.aspx','loginmb.aspx','bookingmb.aspx','historymb.aspx','memberprofilemb.aspx'::
7/24/2017 12:23 AM: 'pagemb.aspx','pagesubmb.aspx','contactusmb.aspx','gallerymb.aspx','loginmb.aspx','bookingmb.aspx','historymb.aspx','memberprofilemb.aspx'::
7/24/2017 12:24 AM: 'pagemb.aspx','pagesubmb.aspx','contactusmb.aspx','gallerymb.aspx','loginmb.aspx','bookingmb.aspx','historymb.aspx','memberprofilemb.aspx'::
7/24/2017 12:24 AM: 'pagemb.aspx','pagesubmb.aspx','contactusmb.aspx','gallerymb.aspx','loginmb.aspx','bookingmb.aspx','historymb.aspx','memberprofilemb.aspx'::
7/24/2017 12:24 AM: 'pagemb.aspx','pagesubmb.aspx','contactusmb.aspx','gallerymb.aspx','loginmb.aspx','bookingmb.aspx','historymb.aspx','memberprofilemb.aspx'::
7/24/2017 12:24 AM: 'pagemb.aspx','pagesubmb.aspx','contactusmb.aspx','gallerymb.aspx','loginmb.aspx','bookingmb.aspx','historymb.aspx','memberprofilemb.aspx'::
7/27/2017 2:50 PM: 'pagemb.aspx','pagesubmb.aspx','contactusmb.aspx','gallerymb.aspx','loginmb.aspx','bookingmb.aspx','historymb.aspx','memberprofilemb.aspx'::
7/27/2017 2:50 PM: 'pagemb.aspx','pagesubmb.aspx','contactusmb.aspx','gallerymb.aspx','loginmb.aspx','bookingmb.aspx','historymb.aspx','memberprofilemb.aspx'::
7/27/2017 2:50 PM: 'pagemb.aspx','pagesubmb.aspx','contactusmb.aspx','gallerymb.aspx','loginmb.aspx','bookingmb.aspx','historymb.aspx','memberprofilemb.aspx'::
7/27/2017 2:50 PM: 'pagemb.aspx','pagesubmb.aspx','contactusmb.aspx','gallerymb.aspx','loginmb.aspx','bookingmb.aspx','historymb.aspx','memberprofilemb.aspx'::
7/27/2017 2:51 PM: 'pagemb.aspx','pagesubmb.aspx','contactusmb.aspx','gallerymb.aspx','loginmb.aspx','bookingmb.aspx','historymb.aspx','memberprofilemb.aspx'::
27/07/2017 14:51: 'pagemb.aspx','pagesubmb.aspx','contactusmb.aspx','gallerymb.aspx','loginmb.aspx','bookingmb.aspx','historymb.aspx','memberprofilemb.aspx'::
8/8/2017 7:42 PM: 'pagemb.aspx','pagesubmb.aspx','contactusmb.aspx','gallerymb.aspx','loginmb.aspx','bookingmb.aspx','historymb.aspx','memberprofilemb.aspx'::
8/8/2017 8:11 PM: 'pagemb.aspx','pagesubmb.aspx','contactusmb.aspx','gallerymb.aspx','loginmb.aspx','bookingmb.aspx','historymb.aspx','memberprofilemb.aspx'::
8/8/2017 8:24 PM: 'pagemb.aspx','pagesubmb.aspx','contactusmb.aspx','gallerymb.aspx','loginmb.aspx','bookingmb.aspx','historymb.aspx','memberprofilemb.aspx'::
8/8/2017 8:24 PM: 'pagemb.aspx','pagesubmb.aspx','contactusmb.aspx','gallerymb.aspx','loginmb.aspx','bookingmb.aspx','historymb.aspx','memberprofilemb.aspx'::
8/8/2017 8:25 PM: 'pagemb.aspx','pagesubmb.aspx','contactusmb.aspx','gallerymb.aspx','loginmb.aspx','bookingmb.aspx','historymb.aspx','memberprofilemb.aspx'::
8/8/2017 8:25 PM: 'pagemb.aspx','pagesubmb.aspx','contactusmb.aspx','gallerymb.aspx','loginmb.aspx','bookingmb.aspx','historymb.aspx','memberprofilemb.aspx'::
08/08/2017 20:26: 'pagemb.aspx','pagesubmb.aspx','contactusmb.aspx','gallerymb.aspx','loginmb.aspx','bookingmb.aspx','historymb.aspx','memberprofilemb.aspx'::
08/08/2017 20:26: 'pagemb.aspx','pagesubmb.aspx','contactusmb.aspx','gallerymb.aspx','loginmb.aspx','bookingmb.aspx','historymb.aspx','memberprofilemb.aspx'::
08/08/2017 20:26: 'pagemb.aspx','pagesubmb.aspx','contactusmb.aspx','gallerymb.aspx','loginmb.aspx','bookingmb.aspx','historymb.aspx','memberprofilemb.aspx'::
8/8/2017 8:26 PM: 'pagemb.aspx','pagesubmb.aspx','contactusmb.aspx','gallerymb.aspx','loginmb.aspx','bookingmb.aspx','historymb.aspx','memberprofilemb.aspx'::
08/08/2017 20:26: 'pagemb.aspx','pagesubmb.aspx','contactusmb.aspx','gallerymb.aspx','loginmb.aspx','bookingmb.aspx','historymb.aspx','memberprofilemb.aspx'::
8/8/2017 8:26 PM: 'pagemb.aspx','pagesubmb.aspx','contactusmb.aspx','gallerymb.aspx','loginmb.aspx','bookingmb.aspx','historymb.aspx','memberprofilemb.aspx'::
8/8/2017 8:26 PM: 'pagemb.aspx','pagesubmb.aspx','contactusmb.aspx','gallerymb.aspx','loginmb.aspx','bookingmb.aspx','historymb.aspx','memberprofilemb.aspx'::
8/8/2017 8:27 PM: 'pagemb.aspx','pagesubmb.aspx','contactusmb.aspx','gallerymb.aspx','loginmb.aspx','bookingmb.aspx','historymb.aspx','memberprofilemb.aspx'::
8/8/2017 8:27 PM: 'pagemb.aspx','pagesubmb.aspx','contactusmb.aspx','gallerymb.aspx','loginmb.aspx','bookingmb.aspx','historymb.aspx','memberprofilemb.aspx'::
8/12/2017 1:27 AM: 'pagemb.aspx','pagesubmb.aspx','contactusmb.aspx','gallerymb.aspx','loginmb.aspx','bookingmb.aspx','historymb.aspx','memberprofilemb.aspx'::
8/12/2017 1:27 AM: 'pagemb.aspx','pagesubmb.aspx','contactusmb.aspx','gallerymb.aspx','loginmb.aspx','bookingmb.aspx','historymb.aspx','memberprofilemb.aspx'::
8/12/2017 1:28 AM: 'pagemb.aspx','pagesubmb.aspx','contactusmb.aspx','gallerymb.aspx','loginmb.aspx','bookingmb.aspx','historymb.aspx','memberprofilemb.aspx'::
8/12/2017 1:28 AM: 'pagemb.aspx','pagesubmb.aspx','contactusmb.aspx','gallerymb.aspx','loginmb.aspx','bookingmb.aspx','historymb.aspx','memberprofilemb.aspx'::
12/08/2017 01:28: 'pagemb.aspx','pagesubmb.aspx','contactusmb.aspx','gallerymb.aspx','loginmb.aspx','bookingmb.aspx','historymb.aspx','memberprofilemb.aspx'::
9/6/2017 10:27 AM: 'pagemb.aspx','pagesubmb.aspx','contactusmb.aspx','gallerymb.aspx','loginmb.aspx','bookingmb.aspx','historymb.aspx','memberprofilemb.aspx'::
9/6/2017 10:27 AM: 'pagemb.aspx','pagesubmb.aspx','contactusmb.aspx','gallerymb.aspx','loginmb.aspx','bookingmb.aspx','historymb.aspx','memberprofilemb.aspx'::
06/09/2017 10:27: 'pagemb.aspx','pagesubmb.aspx','contactusmb.aspx','gallerymb.aspx','loginmb.aspx','bookingmb.aspx','historymb.aspx','memberprofilemb.aspx'::
06/09/2017 10:27: 'pagemb.aspx','pagesubmb.aspx','contactusmb.aspx','gallerymb.aspx','loginmb.aspx','bookingmb.aspx','historymb.aspx','memberprofilemb.aspx'::
9/6/2017 10:27 AM: 'pagemb.aspx','pagesubmb.aspx','contactusmb.aspx','gallerymb.aspx','loginmb.aspx','bookingmb.aspx','historymb.aspx','memberprofilemb.aspx'::
9/6/2017 10:27 AM: 'pagemb.aspx','pagesubmb.aspx','contactusmb.aspx','gallerymb.aspx','loginmb.aspx','bookingmb.aspx','historymb.aspx','memberprofilemb.aspx'::
9/18/2017 3:35 PM: 'pagemb.aspx','pagesubmb.aspx','contactusmb.aspx','gallerymb.aspx','loginmb.aspx','bookingmb.aspx','historymb.aspx','memberprofilemb.aspx'::
9/18/2017 3:36 PM: 'pagemb.aspx','pagesubmb.aspx','contactusmb.aspx','gallerymb.aspx','loginmb.aspx','bookingmb.aspx','historymb.aspx','memberprofilemb.aspx'::
9/18/2017 3:36 PM: 'pagemb.aspx','pagesubmb.aspx','contactusmb.aspx','gallerymb.aspx','loginmb.aspx','bookingmb.aspx','historymb.aspx','memberprofilemb.aspx'::
9/18/2017 3:36 PM: 'pagemb.aspx','pagesubmb.aspx','contactusmb.aspx','gallerymb.aspx','loginmb.aspx','bookingmb.aspx','historymb.aspx','memberprofilemb.aspx'::
18/09/2017 15:36: 'pagemb.aspx','pagesubmb.aspx','contactusmb.aspx','gallerymb.aspx','loginmb.aspx','bookingmb.aspx','historymb.aspx','memberprofilemb.aspx'::
9/18/2017 3:36 PM: 'pagemb.aspx','pagesubmb.aspx','contactusmb.aspx','gallerymb.aspx','loginmb.aspx','bookingmb.aspx','historymb.aspx','memberprofilemb.aspx'::
9/21/2017 12:25 AM: 'pagemb.aspx','pagesubmb.aspx','contactusmb.aspx','gallerymb.aspx','loginmb.aspx','bookingmb.aspx','historymb.aspx','memberprofilemb.aspx'::
9/21/2017 12:25 AM: 'pagemb.aspx','pagesubmb.aspx','contactusmb.aspx','gallerymb.aspx','loginmb.aspx','bookingmb.aspx','historymb.aspx','memberprofilemb.aspx'::
9/21/2017 12:25 AM: 'pagemb.aspx','pagesubmb.aspx','contactusmb.aspx','gallerymb.aspx','loginmb.aspx','bookingmb.aspx','historymb.aspx','memberprofilemb.aspx'::
9/21/2017 12:36 AM: 'pagemb.aspx','pagesubmb.aspx','contactusmb.aspx','gallerymb.aspx','loginmb.aspx','bookingmb.aspx','historymb.aspx','memberprofilemb.aspx'::
9/21/2017 12:36 AM: 'pagemb.aspx','pagesubmb.aspx','contactusmb.aspx','gallerymb.aspx','loginmb.aspx','bookingmb.aspx','historymb.aspx','memberprofilemb.aspx'::
9/21/2017 12:36 AM: 'pagemb.aspx','pagesubmb.aspx','contactusmb.aspx','gallerymb.aspx','loginmb.aspx','bookingmb.aspx','historymb.aspx','memberprofilemb.aspx'::
9/21/2017 12:49 AM: 'pagemb.aspx','pagesubmb.aspx','contactusmb.aspx','gallerymb.aspx','loginmb.aspx','bookingmb.aspx','historymb.aspx','memberprofilemb.aspx'::
9/21/2017 12:49 AM: 'pagemb.aspx','pagesubmb.aspx','contactusmb.aspx','gallerymb.aspx','loginmb.aspx','bookingmb.aspx','historymb.aspx','memberprofilemb.aspx'::
9/21/2017 12:49 AM: 'pagemb.aspx','pagesubmb.aspx','contactusmb.aspx','gallerymb.aspx','loginmb.aspx','bookingmb.aspx','historymb.aspx','memberprofilemb.aspx'::
9/21/2017 12:49 AM: 'pagemb.aspx','pagesubmb.aspx','contactusmb.aspx','gallerymb.aspx','loginmb.aspx','bookingmb.aspx','historymb.aspx','memberprofilemb.aspx'::
9/21/2017 12:49 AM: 'pagemb.aspx','pagesubmb.aspx','contactusmb.aspx','gallerymb.aspx','loginmb.aspx','bookingmb.aspx','historymb.aspx','memberprofilemb.aspx'::
9/21/2017 12:49 AM: 'pagemb.aspx','pagesubmb.aspx','contactusmb.aspx','gallerymb.aspx','loginmb.aspx','bookingmb.aspx','historymb.aspx','memberprofilemb.aspx'::
9/21/2017 11:59 AM: 'pagemb.aspx','pagesubmb.aspx','contactusmb.aspx','gallerymb.aspx','loginmb.aspx','bookingmb.aspx','historymb.aspx','memberprofilemb.aspx'::
9/21/2017 12:00 PM: 'pagemb.aspx','pagesubmb.aspx','contactusmb.aspx','gallerymb.aspx','loginmb.aspx','bookingmb.aspx','historymb.aspx','memberprofilemb.aspx'::
23/9/2017 11:02 AM: ERROR [IM002] [Microsoft][ODBC Driver Manager] Data source name not found and no default driver specified
23/9/2017 11:13 AM: 'pagemb.aspx','pagesubmb.aspx','contactusmb.aspx','gallerymb.aspx','loginmb.aspx','bookingmb.aspx','historymb.aspx','memberprofilemb.aspx'::
23/9/2017 11:39 PM: 'pagemb.aspx','pagesubmb.aspx','contactusmb.aspx','gallerymb.aspx','loginmb.aspx','bookingmb.aspx','historymb.aspx','memberprofilemb.aspx'::
23/9/2017 11:47 PM: 'pagemb.aspx','pagesubmb.aspx','contactusmb.aspx','gallerymb.aspx','loginmb.aspx','bookingmb.aspx','historymb.aspx','memberprofilemb.aspx'::
23/9/2017 11:47 PM: 'pagemb.aspx','pagesubmb.aspx','contactusmb.aspx','gallerymb.aspx','loginmb.aspx','bookingmb.aspx','historymb.aspx','memberprofilemb.aspx'::
23/9/2017 11:53 PM: 'pagemb.aspx','pagesubmb.aspx','contactusmb.aspx','gallerymb.aspx','loginmb.aspx','bookingmb.aspx','historymb.aspx','memberprofilemb.aspx'::
23/9/2017 11:59 PM: 'pagemb.aspx','pagesubmb.aspx','contactusmb.aspx','gallerymb.aspx','loginmb.aspx','bookingmb.aspx','historymb.aspx','memberprofilemb.aspx'::
24/9/2017 12:02 AM: 'pagemb.aspx','pagesubmb.aspx','contactusmb.aspx','gallerymb.aspx','loginmb.aspx','bookingmb.aspx','historymb.aspx','memberprofilemb.aspx'::
24/9/2017 12:02 AM: 'pagemb.aspx','pagesubmb.aspx','contactusmb.aspx','gallerymb.aspx','loginmb.aspx','bookingmb.aspx','historymb.aspx','memberprofilemb.aspx'::
24/9/2017 12:02 AM: 'pagemb.aspx','pagesubmb.aspx','contactusmb.aspx','gallerymb.aspx','loginmb.aspx','bookingmb.aspx','historymb.aspx','memberprofilemb.aspx'::
24/9/2017 12:13 AM: 'pagemb.aspx','pagesubmb.aspx','contactusmb.aspx','gallerymb.aspx','loginmb.aspx','bookingmb.aspx','historymb.aspx','memberprofilemb.aspx'::
24/9/2017 12:14 AM: 'pagemb.aspx','pagesubmb.aspx','contactusmb.aspx','gallerymb.aspx','loginmb.aspx','bookingmb.aspx','historymb.aspx','memberprofilemb.aspx'::
24/9/2017 12:25 AM: 'pagemb.aspx','pagesubmb.aspx','contactusmb.aspx','gallerymb.aspx','loginmb.aspx','bookingmb.aspx','historymb.aspx','memberprofilemb.aspx'::
24/9/2017 8:47 AM: 'pagemb.aspx','pagesubmb.aspx','contactusmb.aspx','gallerymb.aspx','loginmb.aspx','bookingmb.aspx','historymb.aspx','memberprofilemb.aspx'::
24/9/2017 9:48 AM: 'pagemb.aspx','pagesubmb.aspx','contactusmb.aspx','gallerymb.aspx','loginmb.aspx','bookingmb.aspx','historymb.aspx','memberprofilemb.aspx'::
24/9/2017 9:54 AM: 'pagemb.aspx','pagesubmb.aspx','contactusmb.aspx','gallerymb.aspx','loginmb.aspx','bookingmb.aspx','historymb.aspx','memberprofilemb.aspx'::
24/9/2017 10:03 AM: 'pagemb.aspx','pagesubmb.aspx','contactusmb.aspx','gallerymb.aspx','loginmb.aspx','bookingmb.aspx','historymb.aspx','memberprofilemb.aspx'::
24/9/2017 10:03 AM: 'pagemb.aspx','pagesubmb.aspx','contactusmb.aspx','gallerymb.aspx','loginmb.aspx','bookingmb.aspx','historymb.aspx','memberprofilemb.aspx'::
24/9/2017 10:03 AM: 'pagemb.aspx','pagesubmb.aspx','contactusmb.aspx','gallerymb.aspx','loginmb.aspx','bookingmb.aspx','historymb.aspx','memberprofilemb.aspx'::
24/9/2017 10:04 AM: 'pagemb.aspx','pagesubmb.aspx','contactusmb.aspx','gallerymb.aspx','loginmb.aspx','bookingmb.aspx','historymb.aspx','memberprofilemb.aspx'::
24/9/2017 10:06 AM: 'pagemb.aspx','pagesubmb.aspx','contactusmb.aspx','gallerymb.aspx','loginmb.aspx','bookingmb.aspx','historymb.aspx','memberprofilemb.aspx'::
24/9/2017 10:09 AM: 'pagemb.aspx','pagesubmb.aspx','contactusmb.aspx','gallerymb.aspx','loginmb.aspx','bookingmb.aspx','historymb.aspx','memberprofilemb.aspx'::
24/9/2017 10:10 AM: 'pagemb.aspx','pagesubmb.aspx','contactusmb.aspx','gallerymb.aspx','loginmb.aspx','bookingmb.aspx','historymb.aspx','memberprofilemb.aspx'::
24/9/2017 10:10 AM: 'pagemb.aspx','pagesubmb.aspx','contactusmb.aspx','gallerymb.aspx','loginmb.aspx','bookingmb.aspx','historymb.aspx','memberprofilemb.aspx'::
24/9/2017 10:11 AM: 'pagemb.aspx','pagesubmb.aspx','contactusmb.aspx','gallerymb.aspx','loginmb.aspx','bookingmb.aspx','historymb.aspx','memberprofilemb.aspx'::
24/9/2017 10:21 AM: 'pagemb.aspx','pagesubmb.aspx','contactusmb.aspx','gallerymb.aspx','loginmb.aspx','bookingmb.aspx','historymb.aspx','memberprofilemb.aspx'::
24/9/2017 10:32 AM: 'pagemb.aspx','pagesubmb.aspx','contactusmb.aspx','gallerymb.aspx','loginmb.aspx','bookingmb.aspx','historymb.aspx','memberprofilemb.aspx'::
24/9/2017 10:34 AM: 'pagemb.aspx','pagesubmb.aspx','contactusmb.aspx','gallerymb.aspx','loginmb.aspx','bookingmb.aspx','historymb.aspx','memberprofilemb.aspx'::
24/9/2017 10:35 AM: 'pagemb.aspx','pagesubmb.aspx','contactusmb.aspx','gallerymb.aspx','loginmb.aspx','bookingmb.aspx','historymb.aspx','memberprofilemb.aspx'::
24/9/2017 10:36 AM: 'pagemb.aspx','pagesubmb.aspx','contactusmb.aspx','gallerymb.aspx','loginmb.aspx','bookingmb.aspx','historymb.aspx','memberprofilemb.aspx'::
24/9/2017 10:45 AM: 'pagemb.aspx','pagesubmb.aspx','contactusmb.aspx','gallerymb.aspx','loginmb.aspx','bookingmb.aspx','historymb.aspx','memberprofilemb.aspx'::
24/9/2017 10:58 AM: 'pagemb.aspx','pagesubmb.aspx','contactusmb.aspx','gallerymb.aspx','loginmb.aspx','bookingmb.aspx','historymb.aspx','memberprofilemb.aspx'::
24/9/2017 11:00 AM: 'pagemb.aspx','pagesubmb.aspx','contactusmb.aspx','gallerymb.aspx','loginmb.aspx','bookingmb.aspx','historymb.aspx','memberprofilemb.aspx'::
24/9/2017 11:52 AM: 'pagemb.aspx','pagesubmb.aspx','contactusmb.aspx','gallerymb.aspx','loginmb.aspx','bookingmb.aspx','historymb.aspx','memberprofilemb.aspx'::
24/9/2017 11:54 AM: 'pagemb.aspx','pagesubmb.aspx','contactusmb.aspx','gallerymb.aspx','loginmb.aspx','bookingmb.aspx','historymb.aspx','memberprofilemb.aspx'::
24/9/2017 11:54 AM: 'pagemb.aspx','pagesubmb.aspx','contactusmb.aspx','gallerymb.aspx','loginmb.aspx','bookingmb.aspx','historymb.aspx','memberprofilemb.aspx'::
24/9/2017 11:55 AM: 'pagemb.aspx','pagesubmb.aspx','contactusmb.aspx','gallerymb.aspx','loginmb.aspx','bookingmb.aspx','historymb.aspx','memberprofilemb.aspx'::
24/9/2017 11:59 AM: 'pagemb.aspx','pagesubmb.aspx','contactusmb.aspx','gallerymb.aspx','loginmb.aspx','bookingmb.aspx','historymb.aspx','memberprofilemb.aspx'::
24/9/2017 12:01 PM: 'pagemb.aspx','pagesubmb.aspx','contactusmb.aspx','gallerymb.aspx','loginmb.aspx','bookingmb.aspx','historymb.aspx','memberprofilemb.aspx'::
24/9/2017 12:02 PM: 'pagemb.aspx','pagesubmb.aspx','contactusmb.aspx','gallerymb.aspx','loginmb.aspx','bookingmb.aspx','historymb.aspx','memberprofilemb.aspx'::
24/9/2017 12:03 PM: 'pagemb.aspx','pagesubmb.aspx','contactusmb.aspx','gallerymb.aspx','loginmb.aspx','bookingmb.aspx','historymb.aspx','memberprofilemb.aspx'::
24/9/2017 12:03 PM: 'pagemb.aspx','pagesubmb.aspx','contactusmb.aspx','gallerymb.aspx','loginmb.aspx','bookingmb.aspx','historymb.aspx','memberprofilemb.aspx'::
24/9/2017 12:04 PM: 'pagemb.aspx','pagesubmb.aspx','contactusmb.aspx','gallerymb.aspx','loginmb.aspx','bookingmb.aspx','historymb.aspx','memberprofilemb.aspx'::
24/9/2017 12:06 PM: 'pagemb.aspx','pagesubmb.aspx','contactusmb.aspx','gallerymb.aspx','loginmb.aspx','bookingmb.aspx','historymb.aspx','memberprofilemb.aspx'::
24/9/2017 1:38 PM: 'pagemb.aspx','pagesubmb.aspx','contactusmb.aspx','gallerymb.aspx','loginmb.aspx','bookingmb.aspx','historymb.aspx','memberprofilemb.aspx'::
24/9/2017 2:14 PM: 'pagemb.aspx','pagesubmb.aspx','contactusmb.aspx','gallerymb.aspx','loginmb.aspx','bookingmb.aspx','historymb.aspx','memberprofilemb.aspx'::
24/9/2017 2:33 PM: 'pagemb.aspx','pagesubmb.aspx','contactusmb.aspx','gallerymb.aspx','loginmb.aspx','bookingmb.aspx','historymb.aspx','memberprofilemb.aspx'::
24/9/2017 2:33 PM: 'pagemb.aspx','pagesubmb.aspx','contactusmb.aspx','gallerymb.aspx','loginmb.aspx','bookingmb.aspx','historymb.aspx','memberprofilemb.aspx'::
24/9/2017 2:33 PM: 'pagemb.aspx','pagesubmb.aspx','contactusmb.aspx','gallerymb.aspx','loginmb.aspx','bookingmb.aspx','historymb.aspx','memberprofilemb.aspx'::
24/9/2017 2:34 PM: 'pagemb.aspx','pagesubmb.aspx','contactusmb.aspx','gallerymb.aspx','loginmb.aspx','bookingmb.aspx','historymb.aspx','memberprofilemb.aspx'::
24/9/2017 2:35 PM: 'pagemb.aspx','pagesubmb.aspx','contactusmb.aspx','gallerymb.aspx','loginmb.aspx','bookingmb.aspx','historymb.aspx','memberprofilemb.aspx'::
24/9/2017 2:35 PM: 'pagemb.aspx','pagesubmb.aspx','contactusmb.aspx','gallerymb.aspx','loginmb.aspx','bookingmb.aspx','historymb.aspx','memberprofilemb.aspx'::
24/9/2017 2:36 PM: 'pagemb.aspx','pagesubmb.aspx','contactusmb.aspx','gallerymb.aspx','loginmb.aspx','bookingmb.aspx','historymb.aspx','memberprofilemb.aspx'::
24/9/2017 2:36 PM: 'pagemb.aspx','pagesubmb.aspx','contactusmb.aspx','gallerymb.aspx','loginmb.aspx','bookingmb.aspx','historymb.aspx','memberprofilemb.aspx'::
24/9/2017 2:37 PM: 'pagemb.aspx','pagesubmb.aspx','contactusmb.aspx','gallerymb.aspx','loginmb.aspx','bookingmb.aspx','historymb.aspx','memberprofilemb.aspx'::
24/9/2017 2:38 PM: 'pagemb.aspx','pagesubmb.aspx','contactusmb.aspx','gallerymb.aspx','loginmb.aspx','bookingmb.aspx','historymb.aspx','memberprofilemb.aspx'::
24/9/2017 2:38 PM: 'pagemb.aspx','pagesubmb.aspx','contactusmb.aspx','gallerymb.aspx','loginmb.aspx','bookingmb.aspx','historymb.aspx','memberprofilemb.aspx'::
24/9/2017 2:39 PM: 'pagemb.aspx','pagesubmb.aspx','contactusmb.aspx','gallerymb.aspx','loginmb.aspx','bookingmb.aspx','historymb.aspx','memberprofilemb.aspx'::
24/9/2017 2:39 PM: 'pagemb.aspx','pagesubmb.aspx','contactusmb.aspx','gallerymb.aspx','loginmb.aspx','bookingmb.aspx','historymb.aspx','memberprofilemb.aspx'::
24/9/2017 2:43 PM: 'pagemb.aspx','pagesubmb.aspx','contactusmb.aspx','gallerymb.aspx','loginmb.aspx','bookingmb.aspx','historymb.aspx','memberprofilemb.aspx'::
24/9/2017 2:43 PM: 'pagemb.aspx','pagesubmb.aspx','contactusmb.aspx','gallerymb.aspx','loginmb.aspx','bookingmb.aspx','historymb.aspx','memberprofilemb.aspx'::
24/9/2017 2:44 PM: 'pagemb.aspx','pagesubmb.aspx','contactusmb.aspx','gallerymb.aspx','loginmb.aspx','bookingmb.aspx','historymb.aspx','memberprofilemb.aspx'::
24/9/2017 2:44 PM: 'pagemb.aspx','pagesubmb.aspx','contactusmb.aspx','gallerymb.aspx','loginmb.aspx','bookingmb.aspx','historymb.aspx','memberprofilemb.aspx'::
24/9/2017 2:44 PM: 'pagemb.aspx','pagesubmb.aspx','contactusmb.aspx','gallerymb.aspx','loginmb.aspx','bookingmb.aspx','historymb.aspx','memberprofilemb.aspx'::
24/9/2017 2:44 PM: 'pagemb.aspx','pagesubmb.aspx','contactusmb.aspx','gallerymb.aspx','loginmb.aspx','bookingmb.aspx','historymb.aspx','memberprofilemb.aspx'::
24/9/2017 2:45 PM: 'pagemb.aspx','pagesubmb.aspx','contactusmb.aspx','gallerymb.aspx','loginmb.aspx','bookingmb.aspx','historymb.aspx','memberprofilemb.aspx'::
24/9/2017 2:54 PM: 'pagemb.aspx','pagesubmb.aspx','contactusmb.aspx','gallerymb.aspx','loginmb.aspx','bookingmb.aspx','historymb.aspx','memberprofilemb.aspx'::
24/9/2017 2:56 PM: 'pagemb.aspx','pagesubmb.aspx','contactusmb.aspx','gallerymb.aspx','loginmb.aspx','bookingmb.aspx','historymb.aspx','memberprofilemb.aspx'::
24/9/2017 2:56 PM: 'pagemb.aspx','pagesubmb.aspx','contactusmb.aspx','gallerymb.aspx','loginmb.aspx','bookingmb.aspx','historymb.aspx','memberprofilemb.aspx'::
24/9/2017 2:56 PM: 'pagemb.aspx','pagesubmb.aspx','contactusmb.aspx','gallerymb.aspx','loginmb.aspx','bookingmb.aspx','historymb.aspx','memberprofilemb.aspx'::
24/9/2017 3:10 PM: 'pagemb.aspx','pagesubmb.aspx','contactusmb.aspx','gallerymb.aspx','loginmb.aspx','bookingmb.aspx','historymb.aspx','memberprofilemb.aspx'::
24/9/2017 3:15 PM: 'pagemb.aspx','pagesubmb.aspx','contactusmb.aspx','gallerymb.aspx','loginmb.aspx','bookingmb.aspx','historymb.aspx','memberprofilemb.aspx'::
24/9/2017 3:15 PM: 'pagemb.aspx','pagesubmb.aspx','contactusmb.aspx','gallerymb.aspx','loginmb.aspx','bookingmb.aspx','historymb.aspx','memberprofilemb.aspx'::
24/9/2017 3:16 PM: 'pagemb.aspx','pagesubmb.aspx','contactusmb.aspx','gallerymb.aspx','loginmb.aspx','bookingmb.aspx','historymb.aspx','memberprofilemb.aspx'::
24/9/2017 3:17 PM: 'pagemb.aspx','pagesubmb.aspx','contactusmb.aspx','gallerymb.aspx','loginmb.aspx','bookingmb.aspx','historymb.aspx','memberprofilemb.aspx'::
24/9/2017 3:17 PM: 'pagemb.aspx','pagesubmb.aspx','contactusmb.aspx','gallerymb.aspx','loginmb.aspx','bookingmb.aspx','historymb.aspx','memberprofilemb.aspx'::
24/9/2017 3:17 PM: 'pagemb.aspx','pagesubmb.aspx','contactusmb.aspx','gallerymb.aspx','loginmb.aspx','bookingmb.aspx','historymb.aspx','memberprofilemb.aspx'::
24/9/2017 3:19 PM: 'pagemb.aspx','pagesubmb.aspx','contactusmb.aspx','gallerymb.aspx','loginmb.aspx','bookingmb.aspx','historymb.aspx','memberprofilemb.aspx'::
24/9/2017 3:19 PM: 'pagemb.aspx','pagesubmb.aspx','contactusmb.aspx','gallerymb.aspx','loginmb.aspx','bookingmb.aspx','historymb.aspx','memberprofilemb.aspx'::
24/9/2017 3:33 PM: 'pagemb.aspx','pagesubmb.aspx','contactusmb.aspx','gallerymb.aspx','loginmb.aspx','bookingmb.aspx','historymb.aspx','memberprofilemb.aspx'::
24/9/2017 3:33 PM: 'pagemb.aspx','pagesubmb.aspx','contactusmb.aspx','gallerymb.aspx','loginmb.aspx','bookingmb.aspx','historymb.aspx','memberprofilemb.aspx'::
24/9/2017 3:38 PM: 'pagemb.aspx','pagesubmb.aspx','contactusmb.aspx','gallerymb.aspx','loginmb.aspx','bookingmb.aspx','historymb.aspx','memberprofilemb.aspx'::
24/9/2017 3:44 PM: 'pagemb.aspx','pagesubmb.aspx','contactusmb.aspx','gallerymb.aspx','loginmb.aspx','bookingmb.aspx','historymb.aspx','memberprofilemb.aspx'::
24/9/2017 3:44 PM: 'pagemb.aspx','pagesubmb.aspx','contactusmb.aspx','gallerymb.aspx','loginmb.aspx','bookingmb.aspx','historymb.aspx','memberprofilemb.aspx'::
24/9/2017 3:45 PM: 'pagemb.aspx','pagesubmb.aspx','contactusmb.aspx','gallerymb.aspx','loginmb.aspx','bookingmb.aspx','historymb.aspx','memberprofilemb.aspx'::
24/9/2017 3:46 PM: 'pagemb.aspx','pagesubmb.aspx','contactusmb.aspx','gallerymb.aspx','loginmb.aspx','bookingmb.aspx','historymb.aspx','memberprofilemb.aspx'::
24/9/2017 3:46 PM: ERROR [HY000] [MySQL][ODBC 5.3(w) Driver][mysqld-5.7.19-log]Field 'property_type_name' doesn't have a default value
24/9/2017 3:50 PM: 'pagemb.aspx','pagesubmb.aspx','contactusmb.aspx','gallerymb.aspx','loginmb.aspx','bookingmb.aspx','historymb.aspx','memberprofilemb.aspx'::
24/9/2017 3:50 PM: 'pagemb.aspx','pagesubmb.aspx','contactusmb.aspx','gallerymb.aspx','loginmb.aspx','bookingmb.aspx','historymb.aspx','memberprofilemb.aspx'::
24/9/2017 3:51 PM: 'pagemb.aspx','pagesubmb.aspx','contactusmb.aspx','gallerymb.aspx','loginmb.aspx','bookingmb.aspx','historymb.aspx','memberprofilemb.aspx'::
24/9/2017 3:51 PM: ERROR [HY000] [MySQL][ODBC 5.3(w) Driver][mysqld-5.7.19-log]Field 'aircond_name' doesn't have a default value
24/9/2017 3:54 PM: 'pagemb.aspx','pagesubmb.aspx','contactusmb.aspx','gallerymb.aspx','loginmb.aspx','bookingmb.aspx','historymb.aspx','memberprofilemb.aspx'::
24/9/2017 3:54 PM: 'pagemb.aspx','pagesubmb.aspx','contactusmb.aspx','gallerymb.aspx','loginmb.aspx','bookingmb.aspx','historymb.aspx','memberprofilemb.aspx'::
24/9/2017 3:54 PM: 'pagemb.aspx','pagesubmb.aspx','contactusmb.aspx','gallerymb.aspx','loginmb.aspx','bookingmb.aspx','historymb.aspx','memberprofilemb.aspx'::
24/9/2017 3:54 PM: 'pagemb.aspx','pagesubmb.aspx','contactusmb.aspx','gallerymb.aspx','loginmb.aspx','bookingmb.aspx','historymb.aspx','memberprofilemb.aspx'::
24/9/2017 3:54 PM: 'pagemb.aspx','pagesubmb.aspx','contactusmb.aspx','gallerymb.aspx','loginmb.aspx','bookingmb.aspx','historymb.aspx','memberprofilemb.aspx'::
24/9/2017 3:54 PM: 'pagemb.aspx','pagesubmb.aspx','contactusmb.aspx','gallerymb.aspx','loginmb.aspx','bookingmb.aspx','historymb.aspx','memberprofilemb.aspx'::
24/9/2017 4:04 PM: 'pagemb.aspx','pagesubmb.aspx','contactusmb.aspx','gallerymb.aspx','loginmb.aspx','bookingmb.aspx','historymb.aspx','memberprofilemb.aspx'::
24/9/2017 4:05 PM: 'pagemb.aspx','pagesubmb.aspx','contactusmb.aspx','gallerymb.aspx','loginmb.aspx','bookingmb.aspx','historymb.aspx','memberprofilemb.aspx'::
24/9/2017 4:05 PM: 'pagemb.aspx','pagesubmb.aspx','contactusmb.aspx','gallerymb.aspx','loginmb.aspx','bookingmb.aspx','historymb.aspx','memberprofilemb.aspx'::
24/9/2017 4:06 PM: 'pagemb.aspx','pagesubmb.aspx','contactusmb.aspx','gallerymb.aspx','loginmb.aspx','bookingmb.aspx','historymb.aspx','memberprofilemb.aspx'::
24/9/2017 4:06 PM: 'pagemb.aspx','pagesubmb.aspx','contactusmb.aspx','gallerymb.aspx','loginmb.aspx','bookingmb.aspx','historymb.aspx','memberprofilemb.aspx'::
24/9/2017 4:06 PM: 'pagemb.aspx','pagesubmb.aspx','contactusmb.aspx','gallerymb.aspx','loginmb.aspx','bookingmb.aspx','historymb.aspx','memberprofilemb.aspx'::
24/9/2017 4:06 PM: 'pagemb.aspx','pagesubmb.aspx','contactusmb.aspx','gallerymb.aspx','loginmb.aspx','bookingmb.aspx','historymb.aspx','memberprofilemb.aspx'::
24/9/2017 4:06 PM: 'pagemb.aspx','pagesubmb.aspx','contactusmb.aspx','gallerymb.aspx','loginmb.aspx','bookingmb.aspx','historymb.aspx','memberprofilemb.aspx'::
24/9/2017 4:06 PM: 'pagemb.aspx','pagesubmb.aspx','contactusmb.aspx','gallerymb.aspx','loginmb.aspx','bookingmb.aspx','historymb.aspx','memberprofilemb.aspx'::
24/9/2017 4:06 PM: 'pagemb.aspx','pagesubmb.aspx','contactusmb.aspx','gallerymb.aspx','loginmb.aspx','bookingmb.aspx','historymb.aspx','memberprofilemb.aspx'::
24/9/2017 4:06 PM: 'pagemb.aspx','pagesubmb.aspx','contactusmb.aspx','gallerymb.aspx','loginmb.aspx','bookingmb.aspx','historymb.aspx','memberprofilemb.aspx'::
24/9/2017 4:06 PM: 'pagemb.aspx','pagesubmb.aspx','contactusmb.aspx','gallerymb.aspx','loginmb.aspx','bookingmb.aspx','historymb.aspx','memberprofilemb.aspx'::
24/9/2017 4:06 PM: 'pagemb.aspx','pagesubmb.aspx','contactusmb.aspx','gallerymb.aspx','loginmb.aspx','bookingmb.aspx','historymb.aspx','memberprofilemb.aspx'::
24/9/2017 4:06 PM: 'pagemb.aspx','pagesubmb.aspx','contactusmb.aspx','gallerymb.aspx','loginmb.aspx','bookingmb.aspx','historymb.aspx','memberprofilemb.aspx'::
24/9/2017 4:07 PM: 'pagemb.aspx','pagesubmb.aspx','contactusmb.aspx','gallerymb.aspx','loginmb.aspx','bookingmb.aspx','historymb.aspx','memberprofilemb.aspx'::
24/9/2017 4:07 PM: 'pagemb.aspx','pagesubmb.aspx','contactusmb.aspx','gallerymb.aspx','loginmb.aspx','bookingmb.aspx','historymb.aspx','memberprofilemb.aspx'::
24/9/2017 4:07 PM: 'pagemb.aspx','pagesubmb.aspx','contactusmb.aspx','gallerymb.aspx','loginmb.aspx','bookingmb.aspx','historymb.aspx','memberprofilemb.aspx'::
24/9/2017 4:07 PM: 'pagemb.aspx','pagesubmb.aspx','contactusmb.aspx','gallerymb.aspx','loginmb.aspx','bookingmb.aspx','historymb.aspx','memberprofilemb.aspx'::
24/9/2017 4:07 PM: 'pagemb.aspx','pagesubmb.aspx','contactusmb.aspx','gallerymb.aspx','loginmb.aspx','bookingmb.aspx','historymb.aspx','memberprofilemb.aspx'::
24/9/2017 4:07 PM: 'pagemb.aspx','pagesubmb.aspx','contactusmb.aspx','gallerymb.aspx','loginmb.aspx','bookingmb.aspx','historymb.aspx','memberprofilemb.aspx'::
24/9/2017 4:07 PM: 'pagemb.aspx','pagesubmb.aspx','contactusmb.aspx','gallerymb.aspx','loginmb.aspx','bookingmb.aspx','historymb.aspx','memberprofilemb.aspx'::
24/9/2017 4:07 PM: 'pagemb.aspx','pagesubmb.aspx','contactusmb.aspx','gallerymb.aspx','loginmb.aspx','bookingmb.aspx','historymb.aspx','memberprofilemb.aspx'::
24/9/2017 4:07 PM: 'pagemb.aspx','pagesubmb.aspx','contactusmb.aspx','gallerymb.aspx','loginmb.aspx','bookingmb.aspx','historymb.aspx','memberprofilemb.aspx'::
24/9/2017 4:07 PM: 'pagemb.aspx','pagesubmb.aspx','contactusmb.aspx','gallerymb.aspx','loginmb.aspx','bookingmb.aspx','historymb.aspx','memberprofilemb.aspx'::
24/9/2017 4:07 PM: 'pagemb.aspx','pagesubmb.aspx','contactusmb.aspx','gallerymb.aspx','loginmb.aspx','bookingmb.aspx','historymb.aspx','memberprofilemb.aspx'::
24/9/2017 4:07 PM: 'pagemb.aspx','pagesubmb.aspx','contactusmb.aspx','gallerymb.aspx','loginmb.aspx','bookingmb.aspx','historymb.aspx','memberprofilemb.aspx'::
24/9/2017 4:09 PM: 'pagemb.aspx','pagesubmb.aspx','contactusmb.aspx','gallerymb.aspx','loginmb.aspx','bookingmb.aspx','historymb.aspx','memberprofilemb.aspx'::
24/9/2017 4:09 PM: 'pagemb.aspx','pagesubmb.aspx','contactusmb.aspx','gallerymb.aspx','loginmb.aspx','bookingmb.aspx','historymb.aspx','memberprofilemb.aspx'::
24/9/2017 4:39 PM: 'pagemb.aspx','pagesubmb.aspx','contactusmb.aspx','gallerymb.aspx','loginmb.aspx','bookingmb.aspx','historymb.aspx','memberprofilemb.aspx'::
24/9/2017 4:39 PM: 'pagemb.aspx','pagesubmb.aspx','contactusmb.aspx','gallerymb.aspx','loginmb.aspx','bookingmb.aspx','historymb.aspx','memberprofilemb.aspx'::
24/9/2017 4:40 PM: 'pagemb.aspx','pagesubmb.aspx','contactusmb.aspx','gallerymb.aspx','loginmb.aspx','bookingmb.aspx','historymb.aspx','memberprofilemb.aspx'::
24/9/2017 4:40 PM: 'pagemb.aspx','pagesubmb.aspx','contactusmb.aspx','gallerymb.aspx','loginmb.aspx','bookingmb.aspx','historymb.aspx','memberprofilemb.aspx'::
24/9/2017 4:42 PM: 'pagemb.aspx','pagesubmb.aspx','contactusmb.aspx','gallerymb.aspx','loginmb.aspx','bookingmb.aspx','historymb.aspx','memberprofilemb.aspx'::
24/9/2017 4:42 PM: 'pagemb.aspx','pagesubmb.aspx','contactusmb.aspx','gallerymb.aspx','loginmb.aspx','bookingmb.aspx','historymb.aspx','memberprofilemb.aspx'::
24/9/2017 4:42 PM: 'pagemb.aspx','pagesubmb.aspx','contactusmb.aspx','gallerymb.aspx','loginmb.aspx','bookingmb.aspx','historymb.aspx','memberprofilemb.aspx'::
24/9/2017 4:42 PM: 'pagemb.aspx','pagesubmb.aspx','contactusmb.aspx','gallerymb.aspx','loginmb.aspx','bookingmb.aspx','historymb.aspx','memberprofilemb.aspx'::
24/9/2017 4:42 PM: 'pagemb.aspx','pagesubmb.aspx','contactusmb.aspx','gallerymb.aspx','loginmb.aspx','bookingmb.aspx','historymb.aspx','memberprofilemb.aspx'::
24/9/2017 4:42 PM: 'pagemb.aspx','pagesubmb.aspx','contactusmb.aspx','gallerymb.aspx','loginmb.aspx','bookingmb.aspx','historymb.aspx','memberprofilemb.aspx'::
24/9/2017 4:42 PM: 'pagemb.aspx','pagesubmb.aspx','contactusmb.aspx','gallerymb.aspx','loginmb.aspx','bookingmb.aspx','historymb.aspx','memberprofilemb.aspx'::
24/9/2017 4:42 PM: 'pagemb.aspx','pagesubmb.aspx','contactusmb.aspx','gallerymb.aspx','loginmb.aspx','bookingmb.aspx','historymb.aspx','memberprofilemb.aspx'::
24/9/2017 4:42 PM: 'pagemb.aspx','pagesubmb.aspx','contactusmb.aspx','gallerymb.aspx','loginmb.aspx','bookingmb.aspx','historymb.aspx','memberprofilemb.aspx'::
24/9/2017 4:42 PM: 'pagemb.aspx','pagesubmb.aspx','contactusmb.aspx','gallerymb.aspx','loginmb.aspx','bookingmb.aspx','historymb.aspx','memberprofilemb.aspx'::
24/9/2017 4:42 PM: 'pagemb.aspx','pagesubmb.aspx','contactusmb.aspx','gallerymb.aspx','loginmb.aspx','bookingmb.aspx','historymb.aspx','memberprofilemb.aspx'::
24/9/2017 4:42 PM: 'pagemb.aspx','pagesubmb.aspx','contactusmb.aspx','gallerymb.aspx','loginmb.aspx','bookingmb.aspx','historymb.aspx','memberprofilemb.aspx'::
24/9/2017 4:42 PM: 'pagemb.aspx','pagesubmb.aspx','contactusmb.aspx','gallerymb.aspx','loginmb.aspx','bookingmb.aspx','historymb.aspx','memberprofilemb.aspx'::
24/9/2017 4:44 PM: 'pagemb.aspx','pagesubmb.aspx','contactusmb.aspx','gallerymb.aspx','loginmb.aspx','bookingmb.aspx','historymb.aspx','memberprofilemb.aspx'::
24/9/2017 4:44 PM: 'pagemb.aspx','pagesubmb.aspx','contactusmb.aspx','gallerymb.aspx','loginmb.aspx','bookingmb.aspx','historymb.aspx','memberprofilemb.aspx'::
24/9/2017 4:44 PM: 'pagemb.aspx','pagesubmb.aspx','contactusmb.aspx','gallerymb.aspx','loginmb.aspx','bookingmb.aspx','historymb.aspx','memberprofilemb.aspx'::
24/9/2017 4:44 PM: 'pagemb.aspx','pagesubmb.aspx','contactusmb.aspx','gallerymb.aspx','loginmb.aspx','bookingmb.aspx','historymb.aspx','memberprofilemb.aspx'::
24/9/2017 4:46 PM: 'pagemb.aspx','pagesubmb.aspx','contactusmb.aspx','gallerymb.aspx','loginmb.aspx','bookingmb.aspx','historymb.aspx','memberprofilemb.aspx'::
24/9/2017 4:46 PM: 'pagemb.aspx','pagesubmb.aspx','contactusmb.aspx','gallerymb.aspx','loginmb.aspx','bookingmb.aspx','historymb.aspx','memberprofilemb.aspx'::
24/9/2017 4:46 PM: 'pagemb.aspx','pagesubmb.aspx','contactusmb.aspx','gallerymb.aspx','loginmb.aspx','bookingmb.aspx','historymb.aspx','memberprofilemb.aspx'::
24/9/2017 4:47 PM: 'pagemb.aspx','pagesubmb.aspx','contactusmb.aspx','gallerymb.aspx','loginmb.aspx','bookingmb.aspx','historymb.aspx','memberprofilemb.aspx'::
24/9/2017 4:47 PM: 'pagemb.aspx','pagesubmb.aspx','contactusmb.aspx','gallerymb.aspx','loginmb.aspx','bookingmb.aspx','historymb.aspx','memberprofilemb.aspx'::
24/9/2017 4:47 PM: 'pagemb.aspx','pagesubmb.aspx','contactusmb.aspx','gallerymb.aspx','loginmb.aspx','bookingmb.aspx','historymb.aspx','memberprofilemb.aspx'::
24/9/2017 4:48 PM: 'pagemb.aspx','pagesubmb.aspx','contactusmb.aspx','gallerymb.aspx','loginmb.aspx','bookingmb.aspx','historymb.aspx','memberprofilemb.aspx'::
24/9/2017 4:48 PM: 'pagemb.aspx','pagesubmb.aspx','contactusmb.aspx','gallerymb.aspx','loginmb.aspx','bookingmb.aspx','historymb.aspx','memberprofilemb.aspx'::
24/9/2017 4:49 PM: 'pagemb.aspx','pagesubmb.aspx','contactusmb.aspx','gallerymb.aspx','loginmb.aspx','bookingmb.aspx','historymb.aspx','memberprofilemb.aspx'::
24/9/2017 4:49 PM: 'pagemb.aspx','pagesubmb.aspx','contactusmb.aspx','gallerymb.aspx','loginmb.aspx','bookingmb.aspx','historymb.aspx','memberprofilemb.aspx'::
24/9/2017 4:50 PM: 'pagemb.aspx','pagesubmb.aspx','contactusmb.aspx','gallerymb.aspx','loginmb.aspx','bookingmb.aspx','historymb.aspx','memberprofilemb.aspx'::
24/9/2017 4:50 PM: 'pagemb.aspx','pagesubmb.aspx','contactusmb.aspx','gallerymb.aspx','loginmb.aspx','bookingmb.aspx','historymb.aspx','memberprofilemb.aspx'::
24/9/2017 4:51 PM: 'pagemb.aspx','pagesubmb.aspx','contactusmb.aspx','gallerymb.aspx','loginmb.aspx','bookingmb.aspx','historymb.aspx','memberprofilemb.aspx'::
24/9/2017 4:51 PM: 'pagemb.aspx','pagesubmb.aspx','contactusmb.aspx','gallerymb.aspx','loginmb.aspx','bookingmb.aspx','historymb.aspx','memberprofilemb.aspx'::
24/9/2017 4:54 PM: 'pagemb.aspx','pagesubmb.aspx','contactusmb.aspx','gallerymb.aspx','loginmb.aspx','bookingmb.aspx','historymb.aspx','memberprofilemb.aspx'::
24/9/2017 4:54 PM: 'pagemb.aspx','pagesubmb.aspx','contactusmb.aspx','gallerymb.aspx','loginmb.aspx','bookingmb.aspx','historymb.aspx','memberprofilemb.aspx'::
24/9/2017 4:55 PM: 'pagemb.aspx','pagesubmb.aspx','contactusmb.aspx','gallerymb.aspx','loginmb.aspx','bookingmb.aspx','historymb.aspx','memberprofilemb.aspx'::
24/9/2017 4:55 PM: 'pagemb.aspx','pagesubmb.aspx','contactusmb.aspx','gallerymb.aspx','loginmb.aspx','bookingmb.aspx','historymb.aspx','memberprofilemb.aspx'::
24/9/2017 4:55 PM: 'pagemb.aspx','pagesubmb.aspx','contactusmb.aspx','gallerymb.aspx','loginmb.aspx','bookingmb.aspx','historymb.aspx','memberprofilemb.aspx'::
24/9/2017 4:55 PM: 'pagemb.aspx','pagesubmb.aspx','contactusmb.aspx','gallerymb.aspx','loginmb.aspx','bookingmb.aspx','historymb.aspx','memberprofilemb.aspx'::
24/9/2017 4:58 PM: 'pagemb.aspx','pagesubmb.aspx','contactusmb.aspx','gallerymb.aspx','loginmb.aspx','bookingmb.aspx','historymb.aspx','memberprofilemb.aspx'::
24/9/2017 4:58 PM: 'pagemb.aspx','pagesubmb.aspx','contactusmb.aspx','gallerymb.aspx','loginmb.aspx','bookingmb.aspx','historymb.aspx','memberprofilemb.aspx'::
24/9/2017 4:58 PM: 'pagemb.aspx','pagesubmb.aspx','contactusmb.aspx','gallerymb.aspx','loginmb.aspx','bookingmb.aspx','historymb.aspx','memberprofilemb.aspx'::
24/9/2017 4:59 PM: 'pagemb.aspx','pagesubmb.aspx','contactusmb.aspx','gallerymb.aspx','loginmb.aspx','bookingmb.aspx','historymb.aspx','memberprofilemb.aspx'::
24/9/2017 4:59 PM: 'pagemb.aspx','pagesubmb.aspx','contactusmb.aspx','gallerymb.aspx','loginmb.aspx','bookingmb.aspx','historymb.aspx','memberprofilemb.aspx'::
24/9/2017 4:59 PM: 'pagemb.aspx','pagesubmb.aspx','contactusmb.aspx','gallerymb.aspx','loginmb.aspx','bookingmb.aspx','historymb.aspx','memberprofilemb.aspx'::
24/9/2017 4:59 PM: 'pagemb.aspx','pagesubmb.aspx','contactusmb.aspx','gallerymb.aspx','loginmb.aspx','bookingmb.aspx','historymb.aspx','memberprofilemb.aspx'::
24/9/2017 4:59 PM: 'pagemb.aspx','pagesubmb.aspx','contactusmb.aspx','gallerymb.aspx','loginmb.aspx','bookingmb.aspx','historymb.aspx','memberprofilemb.aspx'::
24/9/2017 4:59 PM: 'pagemb.aspx','pagesubmb.aspx','contactusmb.aspx','gallerymb.aspx','loginmb.aspx','bookingmb.aspx','historymb.aspx','memberprofilemb.aspx'::
24/9/2017 5:47 PM: 'pagemb.aspx','pagesubmb.aspx','contactusmb.aspx','gallerymb.aspx','loginmb.aspx','bookingmb.aspx','historymb.aspx','memberprofilemb.aspx'::
24/9/2017 5:47 PM: 'pagemb.aspx','pagesubmb.aspx','contactusmb.aspx','gallerymb.aspx','loginmb.aspx','bookingmb.aspx','historymb.aspx','memberprofilemb.aspx'::
24/9/2017 5:47 PM: 'pagemb.aspx','pagesubmb.aspx','contactusmb.aspx','gallerymb.aspx','loginmb.aspx','bookingmb.aspx','historymb.aspx','memberprofilemb.aspx'::
24/9/2017 5:54 PM: 'pagemb.aspx','pagesubmb.aspx','contactusmb.aspx','gallerymb.aspx','loginmb.aspx','bookingmb.aspx','historymb.aspx','memberprofilemb.aspx'::
24/9/2017 5:54 PM: 'pagemb.aspx','pagesubmb.aspx','contactusmb.aspx','gallerymb.aspx','loginmb.aspx','bookingmb.aspx','historymb.aspx','memberprofilemb.aspx'::
24/9/2017 5:54 PM: 'pagemb.aspx','pagesubmb.aspx','contactusmb.aspx','gallerymb.aspx','loginmb.aspx','bookingmb.aspx','historymb.aspx','memberprofilemb.aspx'::
24/9/2017 5:54 PM: 'pagemb.aspx','pagesubmb.aspx','contactusmb.aspx','gallerymb.aspx','loginmb.aspx','bookingmb.aspx','historymb.aspx','memberprofilemb.aspx'::
24/9/2017 5:55 PM: 'pagemb.aspx','pagesubmb.aspx','contactusmb.aspx','gallerymb.aspx','loginmb.aspx','bookingmb.aspx','historymb.aspx','memberprofilemb.aspx'::
24/9/2017 5:55 PM: 'pagemb.aspx','pagesubmb.aspx','contactusmb.aspx','gallerymb.aspx','loginmb.aspx','bookingmb.aspx','historymb.aspx','memberprofilemb.aspx'::
24/9/2017 5:55 PM: 'pagemb.aspx','pagesubmb.aspx','contactusmb.aspx','gallerymb.aspx','loginmb.aspx','bookingmb.aspx','historymb.aspx','memberprofilemb.aspx'::
24/9/2017 11:24 PM: ERROR [HY000] [MySQL][ODBC 5.3(w) Driver][mysqld-5.7.19-log]Field 'leave_type' doesn't have a default value
25/9/2017 8:19 PM: 'pagemb.aspx','pagesubmb.aspx','contactusmb.aspx','gallerymb.aspx','loginmb.aspx','bookingmb.aspx','historymb.aspx','memberprofilemb.aspx'::
25/9/2017 8:19 PM: 'pagemb.aspx','pagesubmb.aspx','contactusmb.aspx','gallerymb.aspx','loginmb.aspx','bookingmb.aspx','historymb.aspx','memberprofilemb.aspx'::
25/9/2017 8:24 PM: 'pagemb.aspx','pagesubmb.aspx','contactusmb.aspx','gallerymb.aspx','loginmb.aspx','bookingmb.aspx','historymb.aspx','memberprofilemb.aspx'::
25/9/2017 8:24 PM: 'pagemb.aspx','pagesubmb.aspx','contactusmb.aspx','gallerymb.aspx','loginmb.aspx','bookingmb.aspx','historymb.aspx','memberprofilemb.aspx'::
25/9/2017 8:24 PM: 'pagemb.aspx','pagesubmb.aspx','contactusmb.aspx','gallerymb.aspx','loginmb.aspx','bookingmb.aspx','historymb.aspx','memberprofilemb.aspx'::
25/9/2017 8:26 PM: 'pagemb.aspx','pagesubmb.aspx','contactusmb.aspx','gallerymb.aspx','loginmb.aspx','bookingmb.aspx','historymb.aspx','memberprofilemb.aspx'::
25/9/2017 8:26 PM: 'pagemb.aspx','pagesubmb.aspx','contactusmb.aspx','gallerymb.aspx','loginmb.aspx','bookingmb.aspx','historymb.aspx','memberprofilemb.aspx'::
25/9/2017 8:27 PM: 'pagemb.aspx','pagesubmb.aspx','contactusmb.aspx','gallerymb.aspx','loginmb.aspx','bookingmb.aspx','historymb.aspx','memberprofilemb.aspx'::
25/9/2017 8:28 PM: 'pagemb.aspx','pagesubmb.aspx','contactusmb.aspx','gallerymb.aspx','loginmb.aspx','bookingmb.aspx','historymb.aspx','memberprofilemb.aspx'::
25/9/2017 8:28 PM: 'pagemb.aspx','pagesubmb.aspx','contactusmb.aspx','gallerymb.aspx','loginmb.aspx','bookingmb.aspx','historymb.aspx','memberprofilemb.aspx'::
25/9/2017 8:29 PM: 'pagemb.aspx','pagesubmb.aspx','contactusmb.aspx','gallerymb.aspx','loginmb.aspx','bookingmb.aspx','historymb.aspx','memberprofilemb.aspx'::
25/9/2017 8:29 PM: 'pagemb.aspx','pagesubmb.aspx','contactusmb.aspx','gallerymb.aspx','loginmb.aspx','bookingmb.aspx','historymb.aspx','memberprofilemb.aspx'::
25/9/2017 8:58 PM: 'pagemb.aspx','pagesubmb.aspx','contactusmb.aspx','gallerymb.aspx','loginmb.aspx','bookingmb.aspx','historymb.aspx','memberprofilemb.aspx'::
25/9/2017 8:59 PM: 'pagemb.aspx','pagesubmb.aspx','contactusmb.aspx','gallerymb.aspx','loginmb.aspx','bookingmb.aspx','historymb.aspx','memberprofilemb.aspx'::
25/9/2017 8:59 PM: 'pagemb.aspx','pagesubmb.aspx','contactusmb.aspx','gallerymb.aspx','loginmb.aspx','bookingmb.aspx','historymb.aspx','memberprofilemb.aspx'::
25/9/2017 9:01 PM: 'pagemb.aspx','pagesubmb.aspx','contactusmb.aspx','gallerymb.aspx','loginmb.aspx','bookingmb.aspx','historymb.aspx','memberprofilemb.aspx'::
25/9/2017 9:04 PM: 'pagemb.aspx','pagesubmb.aspx','contactusmb.aspx','gallerymb.aspx','loginmb.aspx','bookingmb.aspx','historymb.aspx','memberprofilemb.aspx'::
25/9/2017 11:10 PM: 'pagemb.aspx','pagesubmb.aspx','contactusmb.aspx','gallerymb.aspx','loginmb.aspx','bookingmb.aspx','historymb.aspx','memberprofilemb.aspx'::
25/9/2017 11:10 PM: 'pagemb.aspx','pagesubmb.aspx','contactusmb.aspx','gallerymb.aspx','loginmb.aspx','bookingmb.aspx','historymb.aspx','memberprofilemb.aspx'::
25/9/2017 11:11 PM: 'pagemb.aspx','pagesubmb.aspx','contactusmb.aspx','gallerymb.aspx','loginmb.aspx','bookingmb.aspx','historymb.aspx','memberprofilemb.aspx'::
25/9/2017 11:11 PM: 'pagemb.aspx','pagesubmb.aspx','contactusmb.aspx','gallerymb.aspx','loginmb.aspx','bookingmb.aspx','historymb.aspx','memberprofilemb.aspx'::
25/9/2017 11:12 PM: 'pagemb.aspx','pagesubmb.aspx','contactusmb.aspx','gallerymb.aspx','loginmb.aspx','bookingmb.aspx','historymb.aspx','memberprofilemb.aspx'::
25/9/2017 11:12 PM: 'pagemb.aspx','pagesubmb.aspx','contactusmb.aspx','gallerymb.aspx','loginmb.aspx','bookingmb.aspx','historymb.aspx','memberprofilemb.aspx'::
25/9/2017 11:12 PM: 'pagemb.aspx','pagesubmb.aspx','contactusmb.aspx','gallerymb.aspx','loginmb.aspx','bookingmb.aspx','historymb.aspx','memberprofilemb.aspx'::
25/9/2017 11:13 PM: 'pagemb.aspx','pagesubmb.aspx','contactusmb.aspx','gallerymb.aspx','loginmb.aspx','bookingmb.aspx','historymb.aspx','memberprofilemb.aspx'::
25/9/2017 11:13 PM: 'pagemb.aspx','pagesubmb.aspx','contactusmb.aspx','gallerymb.aspx','loginmb.aspx','bookingmb.aspx','historymb.aspx','memberprofilemb.aspx'::
25/9/2017 11:55 PM: 'pagemb.aspx','pagesubmb.aspx','contactusmb.aspx','gallerymb.aspx','loginmb.aspx','bookingmb.aspx','historymb.aspx','memberprofilemb.aspx'::
25/9/2017 11:55 PM: 'pagemb.aspx','pagesubmb.aspx','contactusmb.aspx','gallerymb.aspx','loginmb.aspx','bookingmb.aspx','historymb.aspx','memberprofilemb.aspx'::
25/9/2017 11:56 PM: 'pagemb.aspx','pagesubmb.aspx','contactusmb.aspx','gallerymb.aspx','loginmb.aspx','bookingmb.aspx','historymb.aspx','memberprofilemb.aspx'::
25/9/2017 11:56 PM: 'pagemb.aspx','pagesubmb.aspx','contactusmb.aspx','gallerymb.aspx','loginmb.aspx','bookingmb.aspx','historymb.aspx','memberprofilemb.aspx'::
25/9/2017 11:56 PM: 'pagemb.aspx','pagesubmb.aspx','contactusmb.aspx','gallerymb.aspx','loginmb.aspx','bookingmb.aspx','historymb.aspx','memberprofilemb.aspx'::
25/9/2017 11:56 PM: 'pagemb.aspx','pagesubmb.aspx','contactusmb.aspx','gallerymb.aspx','loginmb.aspx','bookingmb.aspx','historymb.aspx','memberprofilemb.aspx'::
25/9/2017 11:56 PM: 'pagemb.aspx','pagesubmb.aspx','contactusmb.aspx','gallerymb.aspx','loginmb.aspx','bookingmb.aspx','historymb.aspx','memberprofilemb.aspx'::
25/9/2017 11:56 PM: 'pagemb.aspx','pagesubmb.aspx','contactusmb.aspx','gallerymb.aspx','loginmb.aspx','bookingmb.aspx','historymb.aspx','memberprofilemb.aspx'::
25/9/2017 11:57 PM: 'pagemb.aspx','pagesubmb.aspx','contactusmb.aspx','gallerymb.aspx','loginmb.aspx','bookingmb.aspx','historymb.aspx','memberprofilemb.aspx'::
25/9/2017 11:57 PM: 'pagemb.aspx','pagesubmb.aspx','contactusmb.aspx','gallerymb.aspx','loginmb.aspx','bookingmb.aspx','historymb.aspx','memberprofilemb.aspx'::
25/9/2017 11:57 PM: 'pagemb.aspx','pagesubmb.aspx','contactusmb.aspx','gallerymb.aspx','loginmb.aspx','bookingmb.aspx','historymb.aspx','memberprofilemb.aspx'::
25/9/2017 11:57 PM: 'pagemb.aspx','pagesubmb.aspx','contactusmb.aspx','gallerymb.aspx','loginmb.aspx','bookingmb.aspx','historymb.aspx','memberprofilemb.aspx'::
11/23/2017 9:54 PM: 'pagemb.aspx','pagesubmb.aspx','contactusmb.aspx','gallerymb.aspx','loginmb.aspx','bookingmb.aspx','historymb.aspx','memberprofilemb.aspx'::
11/23/2017 9:55 PM: 'pagemb.aspx','pagesubmb.aspx','contactusmb.aspx','gallerymb.aspx','loginmb.aspx','bookingmb.aspx','historymb.aspx','memberprofilemb.aspx'::
11/23/2017 9:55 PM: 'pagemb.aspx','pagesubmb.aspx','contactusmb.aspx','gallerymb.aspx','loginmb.aspx','bookingmb.aspx','historymb.aspx','memberprofilemb.aspx'::
11/23/2017 9:55 PM: 'pagemb.aspx','pagesubmb.aspx','contactusmb.aspx','gallerymb.aspx','loginmb.aspx','bookingmb.aspx','historymb.aspx','memberprofilemb.aspx'::
11/23/2017 9:55 PM: 'pagemb.aspx','pagesubmb.aspx','contactusmb.aspx','gallerymb.aspx','loginmb.aspx','bookingmb.aspx','historymb.aspx','memberprofilemb.aspx'::
11/23/2017 9:57 PM: 'pagemb.aspx','pagesubmb.aspx','contactusmb.aspx','gallerymb.aspx','loginmb.aspx','bookingmb.aspx','historymb.aspx','memberprofilemb.aspx'::
11/23/2017 10:03 PM: 'pagemb.aspx','pagesubmb.aspx','contactusmb.aspx','gallerymb.aspx','loginmb.aspx','bookingmb.aspx','historymb.aspx','memberprofilemb.aspx'::
11/23/2017 10:03 PM: 'pagemb.aspx','pagesubmb.aspx','contactusmb.aspx','gallerymb.aspx','loginmb.aspx','bookingmb.aspx','historymb.aspx','memberprofilemb.aspx'::
23/11/2017 22:12: 'pagemb.aspx','pagesubmb.aspx','contactusmb.aspx','gallerymb.aspx','loginmb.aspx','bookingmb.aspx','historymb.aspx','memberprofilemb.aspx'::
23/11/2017 22:12: 'pagemb.aspx','pagesubmb.aspx','contactusmb.aspx','gallerymb.aspx','loginmb.aspx','bookingmb.aspx','historymb.aspx','memberprofilemb.aspx'::
23/11/2017 22:13: 'pagemb.aspx','pagesubmb.aspx','contactusmb.aspx','gallerymb.aspx','loginmb.aspx','bookingmb.aspx','historymb.aspx','memberprofilemb.aspx'::
11/23/2017 10:16 PM: 'pagemb.aspx','pagesubmb.aspx','contactusmb.aspx','gallerymb.aspx','loginmb.aspx','bookingmb.aspx','historymb.aspx','memberprofilemb.aspx'::
11/23/2017 10:16 PM: 'pagemb.aspx','pagesubmb.aspx','contactusmb.aspx','gallerymb.aspx','loginmb.aspx','bookingmb.aspx','historymb.aspx','memberprofilemb.aspx'::
11/23/2017 10:17 PM: 'pagemb.aspx','pagesubmb.aspx','contactusmb.aspx','gallerymb.aspx','loginmb.aspx','bookingmb.aspx','historymb.aspx','memberprofilemb.aspx'::
11/23/2017 10:25 PM: 'pagemb.aspx','pagesubmb.aspx','contactusmb.aspx','gallerymb.aspx','loginmb.aspx','bookingmb.aspx','historymb.aspx','memberprofilemb.aspx'::
11/23/2017 10:26 PM: 'pagemb.aspx','pagesubmb.aspx','contactusmb.aspx','gallerymb.aspx','loginmb.aspx','bookingmb.aspx','historymb.aspx','memberprofilemb.aspx'::
11/23/2017 10:27 PM: 'pagemb.aspx','pagesubmb.aspx','contactusmb.aspx','gallerymb.aspx','loginmb.aspx','bookingmb.aspx','historymb.aspx','memberprofilemb.aspx'::
11/23/2017 10:28 PM: 'pagemb.aspx','pagesubmb.aspx','contactusmb.aspx','gallerymb.aspx','loginmb.aspx','bookingmb.aspx','historymb.aspx','memberprofilemb.aspx'::
11/23/2017 10:29 PM: 'pagemb.aspx','pagesubmb.aspx','contactusmb.aspx','gallerymb.aspx','loginmb.aspx','bookingmb.aspx','historymb.aspx','memberprofilemb.aspx'::
11/23/2017 10:29 PM: 'pagemb.aspx','pagesubmb.aspx','contactusmb.aspx','gallerymb.aspx','loginmb.aspx','bookingmb.aspx','historymb.aspx','memberprofilemb.aspx'::
11/23/2017 10:29 PM: 'pagemb.aspx','pagesubmb.aspx','contactusmb.aspx','gallerymb.aspx','loginmb.aspx','bookingmb.aspx','historymb.aspx','memberprofilemb.aspx'::
11/23/2017 10:30 PM: 'pagemb.aspx','pagesubmb.aspx','contactusmb.aspx','gallerymb.aspx','loginmb.aspx','bookingmb.aspx','historymb.aspx','memberprofilemb.aspx'::
11/23/2017 10:30 PM: 'pagemb.aspx','pagesubmb.aspx','contactusmb.aspx','gallerymb.aspx','loginmb.aspx','bookingmb.aspx','historymb.aspx','memberprofilemb.aspx'::
11/23/2017 10:30 PM: 'pagemb.aspx','pagesubmb.aspx','contactusmb.aspx','gallerymb.aspx','loginmb.aspx','bookingmb.aspx','historymb.aspx','memberprofilemb.aspx'::
11/23/2017 10:30 PM: 'pagemb.aspx','pagesubmb.aspx','contactusmb.aspx','gallerymb.aspx','loginmb.aspx','bookingmb.aspx','historymb.aspx','memberprofilemb.aspx'::
11/23/2017 10:31 PM: 'pagemb.aspx','pagesubmb.aspx','contactusmb.aspx','gallerymb.aspx','loginmb.aspx','bookingmb.aspx','historymb.aspx','memberprofilemb.aspx'::
11/23/2017 10:31 PM: 'pagemb.aspx','pagesubmb.aspx','contactusmb.aspx','gallerymb.aspx','loginmb.aspx','bookingmb.aspx','historymb.aspx','memberprofilemb.aspx'::
11/23/2017 10:31 PM: 'pagemb.aspx','pagesubmb.aspx','contactusmb.aspx','gallerymb.aspx','loginmb.aspx','bookingmb.aspx','historymb.aspx','memberprofilemb.aspx'::
11/23/2017 10:32 PM: 'pagemb.aspx','pagesubmb.aspx','contactusmb.aspx','gallerymb.aspx','loginmb.aspx','bookingmb.aspx','historymb.aspx','memberprofilemb.aspx'::
11/23/2017 10:33 PM: 'pagemb.aspx','pagesubmb.aspx','contactusmb.aspx','gallerymb.aspx','loginmb.aspx','bookingmb.aspx','historymb.aspx','memberprofilemb.aspx'::
11/23/2017 10:34 PM: 'pagemb.aspx','pagesubmb.aspx','contactusmb.aspx','gallerymb.aspx','loginmb.aspx','bookingmb.aspx','historymb.aspx','memberprofilemb.aspx'::
11/23/2017 10:36 PM: 'pagemb.aspx','pagesubmb.aspx','contactusmb.aspx','gallerymb.aspx','loginmb.aspx','bookingmb.aspx','historymb.aspx','memberprofilemb.aspx'::
11/23/2017 10:36 PM: 'pagemb.aspx','pagesubmb.aspx','contactusmb.aspx','gallerymb.aspx','loginmb.aspx','bookingmb.aspx','historymb.aspx','memberprofilemb.aspx'::
11/23/2017 10:36 PM: 'pagemb.aspx','pagesubmb.aspx','contactusmb.aspx','gallerymb.aspx','loginmb.aspx','bookingmb.aspx','historymb.aspx','memberprofilemb.aspx'::
11/23/2017 10:36 PM: 'pagemb.aspx','pagesubmb.aspx','contactusmb.aspx','gallerymb.aspx','loginmb.aspx','bookingmb.aspx','historymb.aspx','memberprofilemb.aspx'::
11/23/2017 10:36 PM: 'pagemb.aspx','pagesubmb.aspx','contactusmb.aspx','gallerymb.aspx','loginmb.aspx','bookingmb.aspx','historymb.aspx','memberprofilemb.aspx'::
11/23/2017 10:39 PM: 'pagemb.aspx','pagesubmb.aspx','contactusmb.aspx','gallerymb.aspx','loginmb.aspx','bookingmb.aspx','historymb.aspx','memberprofilemb.aspx'::
23/11/2017 22:39: 'pagemb.aspx','pagesubmb.aspx','contactusmb.aspx','gallerymb.aspx','loginmb.aspx','bookingmb.aspx','historymb.aspx','memberprofilemb.aspx'::
23/11/2017 22:39: 'pagemb.aspx','pagesubmb.aspx','contactusmb.aspx','gallerymb.aspx','loginmb.aspx','bookingmb.aspx','historymb.aspx','memberprofilemb.aspx'::
23/11/2017 22:39: 'pagemb.aspx','pagesubmb.aspx','contactusmb.aspx','gallerymb.aspx','loginmb.aspx','bookingmb.aspx','historymb.aspx','memberprofilemb.aspx'::
23/11/2017 22:39: 'pagemb.aspx','pagesubmb.aspx','contactusmb.aspx','gallerymb.aspx','loginmb.aspx','bookingmb.aspx','historymb.aspx','memberprofilemb.aspx'::
23/11/2017 22:40: 'pagemb.aspx','pagesubmb.aspx','contactusmb.aspx','gallerymb.aspx','loginmb.aspx','bookingmb.aspx','historymb.aspx','memberprofilemb.aspx'::
23/11/2017 22:42: 'pagemb.aspx','pagesubmb.aspx','contactusmb.aspx','gallerymb.aspx','loginmb.aspx','bookingmb.aspx','historymb.aspx','memberprofilemb.aspx'::
23/11/2017 22:42: 'pagemb.aspx','pagesubmb.aspx','contactusmb.aspx','gallerymb.aspx','loginmb.aspx','bookingmb.aspx','historymb.aspx','memberprofilemb.aspx'::
11/23/2017 10:45 PM: 'pagemb.aspx','pagesubmb.aspx','contactusmb.aspx','gallerymb.aspx','loginmb.aspx','bookingmb.aspx','historymb.aspx','memberprofilemb.aspx'::
11/23/2017 10:45 PM: 'pagemb.aspx','pagesubmb.aspx','contactusmb.aspx','gallerymb.aspx','loginmb.aspx','bookingmb.aspx','historymb.aspx','memberprofilemb.aspx'::
11/23/2017 10:46 PM: 'pagemb.aspx','pagesubmb.aspx','contactusmb.aspx','gallerymb.aspx','loginmb.aspx','bookingmb.aspx','historymb.aspx','memberprofilemb.aspx'::
11/23/2017 10:47 PM: 'pagemb.aspx','pagesubmb.aspx','contactusmb.aspx','gallerymb.aspx','loginmb.aspx','bookingmb.aspx','historymb.aspx','memberprofilemb.aspx'::
11/23/2017 10:48 PM: 'pagemb.aspx','pagesubmb.aspx','contactusmb.aspx','gallerymb.aspx','loginmb.aspx','bookingmb.aspx','historymb.aspx','memberprofilemb.aspx'::
11/23/2017 10:49 PM: 'pagemb.aspx','pagesubmb.aspx','contactusmb.aspx','gallerymb.aspx','loginmb.aspx','bookingmb.aspx','historymb.aspx','memberprofilemb.aspx'::
11/23/2017 10:49 PM: 'pagemb.aspx','pagesubmb.aspx','contactusmb.aspx','gallerymb.aspx','loginmb.aspx','bookingmb.aspx','historymb.aspx','memberprofilemb.aspx'::
11/23/2017 10:49 PM: 'pagemb.aspx','pagesubmb.aspx','contactusmb.aspx','gallerymb.aspx','loginmb.aspx','bookingmb.aspx','historymb.aspx','memberprofilemb.aspx'::
11/23/2017 10:49 PM: 'pagemb.aspx','pagesubmb.aspx','contactusmb.aspx','gallerymb.aspx','loginmb.aspx','bookingmb.aspx','historymb.aspx','memberprofilemb.aspx'::
11/23/2017 10:50 PM: 'pagemb.aspx','pagesubmb.aspx','contactusmb.aspx','gallerymb.aspx','loginmb.aspx','bookingmb.aspx','historymb.aspx','memberprofilemb.aspx'::
11/23/2017 10:50 PM: 'pagemb.aspx','pagesubmb.aspx','contactusmb.aspx','gallerymb.aspx','loginmb.aspx','bookingmb.aspx','historymb.aspx','memberprofilemb.aspx'::
11/23/2017 10:52 PM: 'pagemb.aspx','pagesubmb.aspx','contactusmb.aspx','gallerymb.aspx','loginmb.aspx','bookingmb.aspx','historymb.aspx','memberprofilemb.aspx'::
11/23/2017 10:52 PM: 'pagemb.aspx','pagesubmb.aspx','contactusmb.aspx','gallerymb.aspx','loginmb.aspx','bookingmb.aspx','historymb.aspx','memberprofilemb.aspx'::
11/23/2017 10:53 PM: 'pagemb.aspx','pagesubmb.aspx','contactusmb.aspx','gallerymb.aspx','loginmb.aspx','bookingmb.aspx','historymb.aspx','memberprofilemb.aspx'::
11/23/2017 10:53 PM: 'pagemb.aspx','pagesubmb.aspx','contactusmb.aspx','gallerymb.aspx','loginmb.aspx','bookingmb.aspx','historymb.aspx','memberprofilemb.aspx'::
11/23/2017 10:54 PM: 'pagemb.aspx','pagesubmb.aspx','contactusmb.aspx','gallerymb.aspx','loginmb.aspx','bookingmb.aspx','historymb.aspx','memberprofilemb.aspx'::
11/23/2017 10:54 PM: 'pagemb.aspx','pagesubmb.aspx','contactusmb.aspx','gallerymb.aspx','loginmb.aspx','bookingmb.aspx','historymb.aspx','memberprofilemb.aspx'::
11/23/2017 10:54 PM: 'pagemb.aspx','pagesubmb.aspx','contactusmb.aspx','gallerymb.aspx','loginmb.aspx','bookingmb.aspx','historymb.aspx','memberprofilemb.aspx'::
11/23/2017 10:54 PM: 'pagemb.aspx','pagesubmb.aspx','contactusmb.aspx','gallerymb.aspx','loginmb.aspx','bookingmb.aspx','historymb.aspx','memberprofilemb.aspx'::
11/23/2017 10:55 PM: 'pagemb.aspx','pagesubmb.aspx','contactusmb.aspx','gallerymb.aspx','loginmb.aspx','bookingmb.aspx','historymb.aspx','memberprofilemb.aspx'::
11/23/2017 10:55 PM: 'pagemb.aspx','pagesubmb.aspx','contactusmb.aspx','gallerymb.aspx','loginmb.aspx','bookingmb.aspx','historymb.aspx','memberprofilemb.aspx'::
11/23/2017 10:55 PM: 'pagemb.aspx','pagesubmb.aspx','contactusmb.aspx','gallerymb.aspx','loginmb.aspx','bookingmb.aspx','historymb.aspx','memberprofilemb.aspx'::
11/23/2017 11:01 PM: 'pagemb.aspx','pagesubmb.aspx','contactusmb.aspx','gallerymb.aspx','loginmb.aspx','bookingmb.aspx','historymb.aspx','memberprofilemb.aspx'::
11/23/2017 11:01 PM: 'pagemb.aspx','pagesubmb.aspx','contactusmb.aspx','gallerymb.aspx','loginmb.aspx','bookingmb.aspx','historymb.aspx','memberprofilemb.aspx'::
11/23/2017 11:18 PM: 'pagemb.aspx','pagesubmb.aspx','contactusmb.aspx','gallerymb.aspx','loginmb.aspx','bookingmb.aspx','historymb.aspx','memberprofilemb.aspx'::
11/23/2017 11:18 PM: 'pagemb.aspx','pagesubmb.aspx','contactusmb.aspx','gallerymb.aspx','loginmb.aspx','bookingmb.aspx','historymb.aspx','memberprofilemb.aspx'::
11/23/2017 11:19 PM: 'pagemb.aspx','pagesubmb.aspx','contactusmb.aspx','gallerymb.aspx','loginmb.aspx','bookingmb.aspx','historymb.aspx','memberprofilemb.aspx'::
11/23/2017 11:21 PM: 'pagemb.aspx','pagesubmb.aspx','contactusmb.aspx','gallerymb.aspx','loginmb.aspx','bookingmb.aspx','historymb.aspx','memberprofilemb.aspx'::
11/23/2017 11:22 PM: 'pagemb.aspx','pagesubmb.aspx','contactusmb.aspx','gallerymb.aspx','loginmb.aspx','bookingmb.aspx','historymb.aspx','memberprofilemb.aspx'::
11/23/2017 11:23 PM: 'pagemb.aspx','pagesubmb.aspx','contactusmb.aspx','gallerymb.aspx','loginmb.aspx','bookingmb.aspx','historymb.aspx','memberprofilemb.aspx'::
11/23/2017 11:23 PM: 'pagemb.aspx','pagesubmb.aspx','contactusmb.aspx','gallerymb.aspx','loginmb.aspx','bookingmb.aspx','historymb.aspx','memberprofilemb.aspx'::
11/23/2017 11:24 PM: 'pagemb.aspx','pagesubmb.aspx','contactusmb.aspx','gallerymb.aspx','loginmb.aspx','bookingmb.aspx','historymb.aspx','memberprofilemb.aspx'::
11/23/2017 11:24 PM: 'pagemb.aspx','pagesubmb.aspx','contactusmb.aspx','gallerymb.aspx','loginmb.aspx','bookingmb.aspx','historymb.aspx','memberprofilemb.aspx'::
11/23/2017 11:24 PM: 'pagemb.aspx','pagesubmb.aspx','contactusmb.aspx','gallerymb.aspx','loginmb.aspx','bookingmb.aspx','historymb.aspx','memberprofilemb.aspx'::
11/23/2017 11:26 PM: 'pagemb.aspx','pagesubmb.aspx','contactusmb.aspx','gallerymb.aspx','loginmb.aspx','bookingmb.aspx','historymb.aspx','memberprofilemb.aspx'::
11/23/2017 11:26 PM: 'pagemb.aspx','pagesubmb.aspx','contactusmb.aspx','gallerymb.aspx','loginmb.aspx','bookingmb.aspx','historymb.aspx','memberprofilemb.aspx'::
11/23/2017 11:27 PM: 'pagemb.aspx','pagesubmb.aspx','contactusmb.aspx','gallerymb.aspx','loginmb.aspx','bookingmb.aspx','historymb.aspx','memberprofilemb.aspx'::
11/23/2017 11:34 PM: 'pagemb.aspx','pagesubmb.aspx','contactusmb.aspx','gallerymb.aspx','loginmb.aspx','bookingmb.aspx','historymb.aspx','memberprofilemb.aspx'::
11/23/2017 11:35 PM: 'pagemb.aspx','pagesubmb.aspx','contactusmb.aspx','gallerymb.aspx','loginmb.aspx','bookingmb.aspx','historymb.aspx','memberprofilemb.aspx'::
11/23/2017 11:38 PM: 'pagemb.aspx','pagesubmb.aspx','contactusmb.aspx','gallerymb.aspx','loginmb.aspx','bookingmb.aspx','historymb.aspx','memberprofilemb.aspx'::
11/23/2017 11:40 PM: 'pagemb.aspx','pagesubmb.aspx','contactusmb.aspx','gallerymb.aspx','loginmb.aspx','bookingmb.aspx','historymb.aspx','memberprofilemb.aspx'::
11/23/2017 11:40 PM: 'pagemb.aspx','pagesubmb.aspx','contactusmb.aspx','gallerymb.aspx','loginmb.aspx','bookingmb.aspx','historymb.aspx','memberprofilemb.aspx'::
11/23/2017 11:41 PM: 'pagemb.aspx','pagesubmb.aspx','contactusmb.aspx','gallerymb.aspx','loginmb.aspx','bookingmb.aspx','historymb.aspx','memberprofilemb.aspx'::
11/23/2017 11:42 PM: 'pagemb.aspx','pagesubmb.aspx','contactusmb.aspx','gallerymb.aspx','loginmb.aspx','bookingmb.aspx','historymb.aspx','memberprofilemb.aspx'::
11/23/2017 11:43 PM: 'pagemb.aspx','pagesubmb.aspx','contactusmb.aspx','gallerymb.aspx','loginmb.aspx','bookingmb.aspx','historymb.aspx','memberprofilemb.aspx'::
11/23/2017 11:44 PM: 'pagemb.aspx','pagesubmb.aspx','contactusmb.aspx','gallerymb.aspx','loginmb.aspx','bookingmb.aspx','historymb.aspx','memberprofilemb.aspx'::
11/23/2017 11:46 PM: 'pagemb.aspx','pagesubmb.aspx','contactusmb.aspx','gallerymb.aspx','loginmb.aspx','bookingmb.aspx','historymb.aspx','memberprofilemb.aspx'::
11/23/2017 11:46 PM: 'pagemb.aspx','pagesubmb.aspx','contactusmb.aspx','gallerymb.aspx','loginmb.aspx','bookingmb.aspx','historymb.aspx','memberprofilemb.aspx'::
11/23/2017 11:46 PM: 'pagemb.aspx','pagesubmb.aspx','contactusmb.aspx','gallerymb.aspx','loginmb.aspx','bookingmb.aspx','historymb.aspx','memberprofilemb.aspx'::
11/23/2017 11:47 PM: 'pagemb.aspx','pagesubmb.aspx','contactusmb.aspx','gallerymb.aspx','loginmb.aspx','bookingmb.aspx','historymb.aspx','memberprofilemb.aspx'::
11/23/2017 11:48 PM: 'pagemb.aspx','pagesubmb.aspx','contactusmb.aspx','gallerymb.aspx','loginmb.aspx','bookingmb.aspx','historymb.aspx','memberprofilemb.aspx'::
11/23/2017 11:49 PM: 'pagemb.aspx','pagesubmb.aspx','contactusmb.aspx','gallerymb.aspx','loginmb.aspx','bookingmb.aspx','historymb.aspx','memberprofilemb.aspx'::
11/23/2017 11:49 PM: 'pagemb.aspx','pagesubmb.aspx','contactusmb.aspx','gallerymb.aspx','loginmb.aspx','bookingmb.aspx','historymb.aspx','memberprofilemb.aspx'::
11/23/2017 11:49 PM: 'pagemb.aspx','pagesubmb.aspx','contactusmb.aspx','gallerymb.aspx','loginmb.aspx','bookingmb.aspx','historymb.aspx','memberprofilemb.aspx'::
11/23/2017 11:50 PM: 'pagemb.aspx','pagesubmb.aspx','contactusmb.aspx','gallerymb.aspx','loginmb.aspx','bookingmb.aspx','historymb.aspx','memberprofilemb.aspx'::
11/23/2017 11:51 PM: 'pagemb.aspx','pagesubmb.aspx','contactusmb.aspx','gallerymb.aspx','loginmb.aspx','bookingmb.aspx','historymb.aspx','memberprofilemb.aspx'::
11/23/2017 11:51 PM: 'pagemb.aspx','pagesubmb.aspx','contactusmb.aspx','gallerymb.aspx','loginmb.aspx','bookingmb.aspx','historymb.aspx','memberprofilemb.aspx'::
11/23/2017 11:52 PM: 'pagemb.aspx','pagesubmb.aspx','contactusmb.aspx','gallerymb.aspx','loginmb.aspx','bookingmb.aspx','historymb.aspx','memberprofilemb.aspx'::
11/23/2017 11:53 PM: 'pagemb.aspx','pagesubmb.aspx','contactusmb.aspx','gallerymb.aspx','loginmb.aspx','bookingmb.aspx','historymb.aspx','memberprofilemb.aspx'::
11/23/2017 11:53 PM: 'pagemb.aspx','pagesubmb.aspx','contactusmb.aspx','gallerymb.aspx','loginmb.aspx','bookingmb.aspx','historymb.aspx','memberprofilemb.aspx'::
11/23/2017 11:54 PM: 'pagemb.aspx','pagesubmb.aspx','contactusmb.aspx','gallerymb.aspx','loginmb.aspx','bookingmb.aspx','historymb.aspx','memberprofilemb.aspx'::
11/23/2017 11:54 PM: 'pagemb.aspx','pagesubmb.aspx','contactusmb.aspx','gallerymb.aspx','loginmb.aspx','bookingmb.aspx','historymb.aspx','memberprofilemb.aspx'::
11/24/2017 12:02 AM: 'pagemb.aspx','pagesubmb.aspx','contactusmb.aspx','gallerymb.aspx','loginmb.aspx','bookingmb.aspx','historymb.aspx','memberprofilemb.aspx'::
11/24/2017 12:02 AM: 'pagemb.aspx','pagesubmb.aspx','contactusmb.aspx','gallerymb.aspx','loginmb.aspx','bookingmb.aspx','historymb.aspx','memberprofilemb.aspx'::
11/24/2017 12:02 AM: 'pagemb.aspx','pagesubmb.aspx','contactusmb.aspx','gallerymb.aspx','loginmb.aspx','bookingmb.aspx','historymb.aspx','memberprofilemb.aspx'::
11/24/2017 12:03 AM: 'pagemb.aspx','pagesubmb.aspx','contactusmb.aspx','gallerymb.aspx','loginmb.aspx','bookingmb.aspx','historymb.aspx','memberprofilemb.aspx'::
11/24/2017 12:03 AM: 'pagemb.aspx','pagesubmb.aspx','contactusmb.aspx','gallerymb.aspx','loginmb.aspx','bookingmb.aspx','historymb.aspx','memberprofilemb.aspx'::
11/24/2017 12:04 AM: 'pagemb.aspx','pagesubmb.aspx','contactusmb.aspx','gallerymb.aspx','loginmb.aspx','bookingmb.aspx','historymb.aspx','memberprofilemb.aspx'::
11/24/2017 12:05 AM: 'pagemb.aspx','pagesubmb.aspx','contactusmb.aspx','gallerymb.aspx','loginmb.aspx','bookingmb.aspx','historymb.aspx','memberprofilemb.aspx'::
11/24/2017 12:05 AM: 'pagemb.aspx','pagesubmb.aspx','contactusmb.aspx','gallerymb.aspx','loginmb.aspx','bookingmb.aspx','historymb.aspx','memberprofilemb.aspx'::
11/24/2017 12:05 AM: 'pagemb.aspx','pagesubmb.aspx','contactusmb.aspx','gallerymb.aspx','loginmb.aspx','bookingmb.aspx','historymb.aspx','memberprofilemb.aspx'::
11/24/2017 12:06 AM: 'pagemb.aspx','pagesubmb.aspx','contactusmb.aspx','gallerymb.aspx','loginmb.aspx','bookingmb.aspx','historymb.aspx','memberprofilemb.aspx'::
11/24/2017 12:06 AM: 'pagemb.aspx','pagesubmb.aspx','contactusmb.aspx','gallerymb.aspx','loginmb.aspx','bookingmb.aspx','historymb.aspx','memberprofilemb.aspx'::
11/24/2017 12:09 AM: 'pagemb.aspx','pagesubmb.aspx','contactusmb.aspx','gallerymb.aspx','loginmb.aspx','bookingmb.aspx','historymb.aspx','memberprofilemb.aspx'::
11/24/2017 12:09 AM: 'pagemb.aspx','pagesubmb.aspx','contactusmb.aspx','gallerymb.aspx','loginmb.aspx','bookingmb.aspx','historymb.aspx','memberprofilemb.aspx'::
11/24/2017 12:10 AM: 'pagemb.aspx','pagesubmb.aspx','contactusmb.aspx','gallerymb.aspx','loginmb.aspx','bookingmb.aspx','historymb.aspx','memberprofilemb.aspx'::
11/24/2017 12:10 AM: 'pagemb.aspx','pagesubmb.aspx','contactusmb.aspx','gallerymb.aspx','loginmb.aspx','bookingmb.aspx','historymb.aspx','memberprofilemb.aspx'::
11/24/2017 12:11 AM: 'pagemb.aspx','pagesubmb.aspx','contactusmb.aspx','gallerymb.aspx','loginmb.aspx','bookingmb.aspx','historymb.aspx','memberprofilemb.aspx'::
11/24/2017 12:11 AM: 'pagemb.aspx','pagesubmb.aspx','contactusmb.aspx','gallerymb.aspx','loginmb.aspx','bookingmb.aspx','historymb.aspx','memberprofilemb.aspx'::
11/24/2017 12:12 AM: 'pagemb.aspx','pagesubmb.aspx','contactusmb.aspx','gallerymb.aspx','loginmb.aspx','bookingmb.aspx','historymb.aspx','memberprofilemb.aspx'::
11/24/2017 12:12 AM: 'pagemb.aspx','pagesubmb.aspx','contactusmb.aspx','gallerymb.aspx','loginmb.aspx','bookingmb.aspx','historymb.aspx','memberprofilemb.aspx'::
11/24/2017 12:12 AM: 'pagemb.aspx','pagesubmb.aspx','contactusmb.aspx','gallerymb.aspx','loginmb.aspx','bookingmb.aspx','historymb.aspx','memberprofilemb.aspx'::
11/24/2017 12:13 AM: 'pagemb.aspx','pagesubmb.aspx','contactusmb.aspx','gallerymb.aspx','loginmb.aspx','bookingmb.aspx','historymb.aspx','memberprofilemb.aspx'::
11/24/2017 12:13 AM: 'pagemb.aspx','pagesubmb.aspx','contactusmb.aspx','gallerymb.aspx','loginmb.aspx','bookingmb.aspx','historymb.aspx','memberprofilemb.aspx'::
11/24/2017 12:13 AM: 'pagemb.aspx','pagesubmb.aspx','contactusmb.aspx','gallerymb.aspx','loginmb.aspx','bookingmb.aspx','historymb.aspx','memberprofilemb.aspx'::
11/24/2017 12:14 AM: 'pagemb.aspx','pagesubmb.aspx','contactusmb.aspx','gallerymb.aspx','loginmb.aspx','bookingmb.aspx','historymb.aspx','memberprofilemb.aspx'::
11/24/2017 12:14 AM: 'pagemb.aspx','pagesubmb.aspx','contactusmb.aspx','gallerymb.aspx','loginmb.aspx','bookingmb.aspx','historymb.aspx','memberprofilemb.aspx'::
11/24/2017 12:14 AM: 'pagemb.aspx','pagesubmb.aspx','contactusmb.aspx','gallerymb.aspx','loginmb.aspx','bookingmb.aspx','historymb.aspx','memberprofilemb.aspx'::
11/24/2017 12:15 AM: 'pagemb.aspx','pagesubmb.aspx','contactusmb.aspx','gallerymb.aspx','loginmb.aspx','bookingmb.aspx','historymb.aspx','memberprofilemb.aspx'::
11/24/2017 12:16 AM: 'pagemb.aspx','pagesubmb.aspx','contactusmb.aspx','gallerymb.aspx','loginmb.aspx','bookingmb.aspx','historymb.aspx','memberprofilemb.aspx'::
11/24/2017 12:16 AM: 'pagemb.aspx','pagesubmb.aspx','contactusmb.aspx','gallerymb.aspx','loginmb.aspx','bookingmb.aspx','historymb.aspx','memberprofilemb.aspx'::
11/24/2017 12:17 AM: 'pagemb.aspx','pagesubmb.aspx','contactusmb.aspx','gallerymb.aspx','loginmb.aspx','bookingmb.aspx','historymb.aspx','memberprofilemb.aspx'::
11/24/2017 12:18 AM: 'pagemb.aspx','pagesubmb.aspx','contactusmb.aspx','gallerymb.aspx','loginmb.aspx','bookingmb.aspx','historymb.aspx','memberprofilemb.aspx'::
11/24/2017 12:18 AM: 'pagemb.aspx','pagesubmb.aspx','contactusmb.aspx','gallerymb.aspx','loginmb.aspx','bookingmb.aspx','historymb.aspx','memberprofilemb.aspx'::
11/24/2017 12:19 AM: 'pagemb.aspx','pagesubmb.aspx','contactusmb.aspx','gallerymb.aspx','loginmb.aspx','bookingmb.aspx','historymb.aspx','memberprofilemb.aspx'::
11/24/2017 12:19 AM: 'pagemb.aspx','pagesubmb.aspx','contactusmb.aspx','gallerymb.aspx','loginmb.aspx','bookingmb.aspx','historymb.aspx','memberprofilemb.aspx'::
11/24/2017 12:21 AM: 'pagemb.aspx','pagesubmb.aspx','contactusmb.aspx','gallerymb.aspx','loginmb.aspx','bookingmb.aspx','historymb.aspx','memberprofilemb.aspx'::
11/24/2017 12:21 AM: 'pagemb.aspx','pagesubmb.aspx','contactusmb.aspx','gallerymb.aspx','loginmb.aspx','bookingmb.aspx','historymb.aspx','memberprofilemb.aspx'::
11/24/2017 12:22 AM: 'pagemb.aspx','pagesubmb.aspx','contactusmb.aspx','gallerymb.aspx','loginmb.aspx','bookingmb.aspx','historymb.aspx','memberprofilemb.aspx'::
11/24/2017 12:24 AM: 'pagemb.aspx','pagesubmb.aspx','contactusmb.aspx','gallerymb.aspx','loginmb.aspx','bookingmb.aspx','historymb.aspx','memberprofilemb.aspx'::
11/24/2017 12:24 AM: 'pagemb.aspx','pagesubmb.aspx','contactusmb.aspx','gallerymb.aspx','loginmb.aspx','bookingmb.aspx','historymb.aspx','memberprofilemb.aspx'::
11/24/2017 12:25 AM: 'pagemb.aspx','pagesubmb.aspx','contactusmb.aspx','gallerymb.aspx','loginmb.aspx','bookingmb.aspx','historymb.aspx','memberprofilemb.aspx'::
11/24/2017 12:25 AM: 'pagemb.aspx','pagesubmb.aspx','contactusmb.aspx','gallerymb.aspx','loginmb.aspx','bookingmb.aspx','historymb.aspx','memberprofilemb.aspx'::
11/24/2017 12:26 AM: 'pagemb.aspx','pagesubmb.aspx','contactusmb.aspx','gallerymb.aspx','loginmb.aspx','bookingmb.aspx','historymb.aspx','memberprofilemb.aspx'::
11/24/2017 12:26 AM: 'pagemb.aspx','pagesubmb.aspx','contactusmb.aspx','gallerymb.aspx','loginmb.aspx','bookingmb.aspx','historymb.aspx','memberprofilemb.aspx'::
11/24/2017 12:27 AM: 'pagemb.aspx','pagesubmb.aspx','contactusmb.aspx','gallerymb.aspx','loginmb.aspx','bookingmb.aspx','historymb.aspx','memberprofilemb.aspx'::
11/24/2017 12:27 AM: 'pagemb.aspx','pagesubmb.aspx','contactusmb.aspx','gallerymb.aspx','loginmb.aspx','bookingmb.aspx','historymb.aspx','memberprofilemb.aspx'::
11/24/2017 12:28 AM: 'pagemb.aspx','pagesubmb.aspx','contactusmb.aspx','gallerymb.aspx','loginmb.aspx','bookingmb.aspx','historymb.aspx','memberprofilemb.aspx'::
11/24/2017 12:28 AM: 'pagemb.aspx','pagesubmb.aspx','contactusmb.aspx','gallerymb.aspx','loginmb.aspx','bookingmb.aspx','historymb.aspx','memberprofilemb.aspx'::
11/24/2017 12:29 AM: 'pagemb.aspx','pagesubmb.aspx','contactusmb.aspx','gallerymb.aspx','loginmb.aspx','bookingmb.aspx','historymb.aspx','memberprofilemb.aspx'::
11/24/2017 12:29 AM: 'pagemb.aspx','pagesubmb.aspx','contactusmb.aspx','gallerymb.aspx','loginmb.aspx','bookingmb.aspx','historymb.aspx','memberprofilemb.aspx'::
11/24/2017 12:31 AM: 'pagemb.aspx','pagesubmb.aspx','contactusmb.aspx','gallerymb.aspx','loginmb.aspx','bookingmb.aspx','historymb.aspx','memberprofilemb.aspx'::
11/24/2017 12:33 AM: 'pagemb.aspx','pagesubmb.aspx','contactusmb.aspx','gallerymb.aspx','loginmb.aspx','bookingmb.aspx','historymb.aspx','memberprofilemb.aspx'::
11/24/2017 12:33 AM: 'pagemb.aspx','pagesubmb.aspx','contactusmb.aspx','gallerymb.aspx','loginmb.aspx','bookingmb.aspx','historymb.aspx','memberprofilemb.aspx'::
11/24/2017 12:34 AM: 'pagemb.aspx','pagesubmb.aspx','contactusmb.aspx','gallerymb.aspx','loginmb.aspx','bookingmb.aspx','historymb.aspx','memberprofilemb.aspx'::
11/24/2017 12:35 AM: 'pagemb.aspx','pagesubmb.aspx','contactusmb.aspx','gallerymb.aspx','loginmb.aspx','bookingmb.aspx','historymb.aspx','memberprofilemb.aspx'::
11/24/2017 12:35 AM: 'pagemb.aspx','pagesubmb.aspx','contactusmb.aspx','gallerymb.aspx','loginmb.aspx','bookingmb.aspx','historymb.aspx','memberprofilemb.aspx'::
11/24/2017 12:35 AM: 'pagemb.aspx','pagesubmb.aspx','contactusmb.aspx','gallerymb.aspx','loginmb.aspx','bookingmb.aspx','historymb.aspx','memberprofilemb.aspx'::
11/24/2017 12:36 AM: 'pagemb.aspx','pagesubmb.aspx','contactusmb.aspx','gallerymb.aspx','loginmb.aspx','bookingmb.aspx','historymb.aspx','memberprofilemb.aspx'::
11/24/2017 12:36 AM: 'pagemb.aspx','pagesubmb.aspx','contactusmb.aspx','gallerymb.aspx','loginmb.aspx','bookingmb.aspx','historymb.aspx','memberprofilemb.aspx'::
11/24/2017 12:37 AM: 'pagemb.aspx','pagesubmb.aspx','contactusmb.aspx','gallerymb.aspx','loginmb.aspx','bookingmb.aspx','historymb.aspx','memberprofilemb.aspx'::
11/24/2017 12:37 AM: 'pagemb.aspx','pagesubmb.aspx','contactusmb.aspx','gallerymb.aspx','loginmb.aspx','bookingmb.aspx','historymb.aspx','memberprofilemb.aspx'::
11/24/2017 12:37 AM: 'pagemb.aspx','pagesubmb.aspx','contactusmb.aspx','gallerymb.aspx','loginmb.aspx','bookingmb.aspx','historymb.aspx','memberprofilemb.aspx'::
11/24/2017 12:38 AM: 'pagemb.aspx','pagesubmb.aspx','contactusmb.aspx','gallerymb.aspx','loginmb.aspx','bookingmb.aspx','historymb.aspx','memberprofilemb.aspx'::
11/24/2017 12:38 AM: 'pagemb.aspx','pagesubmb.aspx','contactusmb.aspx','gallerymb.aspx','loginmb.aspx','bookingmb.aspx','historymb.aspx','memberprofilemb.aspx'::
11/24/2017 12:38 AM: 'pagemb.aspx','pagesubmb.aspx','contactusmb.aspx','gallerymb.aspx','loginmb.aspx','bookingmb.aspx','historymb.aspx','memberprofilemb.aspx'::
11/24/2017 12:39 AM: 'pagemb.aspx','pagesubmb.aspx','contactusmb.aspx','gallerymb.aspx','loginmb.aspx','bookingmb.aspx','historymb.aspx','memberprofilemb.aspx'::
11/24/2017 12:40 AM: 'pagemb.aspx','pagesubmb.aspx','contactusmb.aspx','gallerymb.aspx','loginmb.aspx','bookingmb.aspx','historymb.aspx','memberprofilemb.aspx'::
11/24/2017 12:40 AM: 'pagemb.aspx','pagesubmb.aspx','contactusmb.aspx','gallerymb.aspx','loginmb.aspx','bookingmb.aspx','historymb.aspx','memberprofilemb.aspx'::
11/24/2017 12:41 AM: 'pagemb.aspx','pagesubmb.aspx','contactusmb.aspx','gallerymb.aspx','loginmb.aspx','bookingmb.aspx','historymb.aspx','memberprofilemb.aspx'::
11/24/2017 12:41 AM: 'pagemb.aspx','pagesubmb.aspx','contactusmb.aspx','gallerymb.aspx','loginmb.aspx','bookingmb.aspx','historymb.aspx','memberprofilemb.aspx'::
11/24/2017 12:41 AM: 'pagemb.aspx','pagesubmb.aspx','contactusmb.aspx','gallerymb.aspx','loginmb.aspx','bookingmb.aspx','historymb.aspx','memberprofilemb.aspx'::
11/24/2017 12:42 AM: 'pagemb.aspx','pagesubmb.aspx','contactusmb.aspx','gallerymb.aspx','loginmb.aspx','bookingmb.aspx','historymb.aspx','memberprofilemb.aspx'::
11/24/2017 12:42 AM: 'pagemb.aspx','pagesubmb.aspx','contactusmb.aspx','gallerymb.aspx','loginmb.aspx','bookingmb.aspx','historymb.aspx','memberprofilemb.aspx'::
11/24/2017 12:42 AM: 'pagemb.aspx','pagesubmb.aspx','contactusmb.aspx','gallerymb.aspx','loginmb.aspx','bookingmb.aspx','historymb.aspx','memberprofilemb.aspx'::
11/24/2017 12:42 AM: 'pagemb.aspx','pagesubmb.aspx','contactusmb.aspx','gallerymb.aspx','loginmb.aspx','bookingmb.aspx','historymb.aspx','memberprofilemb.aspx'::
11/24/2017 12:43 AM: 'pagemb.aspx','pagesubmb.aspx','contactusmb.aspx','gallerymb.aspx','loginmb.aspx','bookingmb.aspx','historymb.aspx','memberprofilemb.aspx'::
11/24/2017 12:43 AM: 'pagemb.aspx','pagesubmb.aspx','contactusmb.aspx','gallerymb.aspx','loginmb.aspx','bookingmb.aspx','historymb.aspx','memberprofilemb.aspx'::
11/24/2017 12:43 AM: 'pagemb.aspx','pagesubmb.aspx','contactusmb.aspx','gallerymb.aspx','loginmb.aspx','bookingmb.aspx','historymb.aspx','memberprofilemb.aspx'::
11/24/2017 12:44 AM: 'pagemb.aspx','pagesubmb.aspx','contactusmb.aspx','gallerymb.aspx','loginmb.aspx','bookingmb.aspx','historymb.aspx','memberprofilemb.aspx'::
11/24/2017 12:44 AM: 'pagemb.aspx','pagesubmb.aspx','contactusmb.aspx','gallerymb.aspx','loginmb.aspx','bookingmb.aspx','historymb.aspx','memberprofilemb.aspx'::
11/24/2017 12:44 AM: 'pagemb.aspx','pagesubmb.aspx','contactusmb.aspx','gallerymb.aspx','loginmb.aspx','bookingmb.aspx','historymb.aspx','memberprofilemb.aspx'::
11/24/2017 12:46 AM: 'pagemb.aspx','pagesubmb.aspx','contactusmb.aspx','gallerymb.aspx','loginmb.aspx','bookingmb.aspx','historymb.aspx','memberprofilemb.aspx'::
11/24/2017 12:46 AM: 'pagemb.aspx','pagesubmb.aspx','contactusmb.aspx','gallerymb.aspx','loginmb.aspx','bookingmb.aspx','historymb.aspx','memberprofilemb.aspx'::
11/24/2017 12:47 AM: 'pagemb.aspx','pagesubmb.aspx','contactusmb.aspx','gallerymb.aspx','loginmb.aspx','bookingmb.aspx','historymb.aspx','memberprofilemb.aspx'::
11/24/2017 12:47 AM: 'pagemb.aspx','pagesubmb.aspx','contactusmb.aspx','gallerymb.aspx','loginmb.aspx','bookingmb.aspx','historymb.aspx','memberprofilemb.aspx'::
11/24/2017 12:49 AM: 'pagemb.aspx','pagesubmb.aspx','contactusmb.aspx','gallerymb.aspx','loginmb.aspx','bookingmb.aspx','historymb.aspx','memberprofilemb.aspx'::
11/24/2017 12:49 AM: 'pagemb.aspx','pagesubmb.aspx','contactusmb.aspx','gallerymb.aspx','loginmb.aspx','bookingmb.aspx','historymb.aspx','memberprofilemb.aspx'::
11/24/2017 12:50 AM: 'pagemb.aspx','pagesubmb.aspx','contactusmb.aspx','gallerymb.aspx','loginmb.aspx','bookingmb.aspx','historymb.aspx','memberprofilemb.aspx'::
11/24/2017 12:50 AM: 'pagemb.aspx','pagesubmb.aspx','contactusmb.aspx','gallerymb.aspx','loginmb.aspx','bookingmb.aspx','historymb.aspx','memberprofilemb.aspx'::
11/24/2017 12:51 AM: 'pagemb.aspx','pagesubmb.aspx','contactusmb.aspx','gallerymb.aspx','loginmb.aspx','bookingmb.aspx','historymb.aspx','memberprofilemb.aspx'::
